# Blender v2.71 (sub 0) OBJ File: 'clone.blend'
# www.blender.org
o body_Icosphere.002
v 0.194378 0.124298 -0.312886
v 0.330544 -0.186278 -0.084667
v -0.006122 -0.231906 -0.311945
v -0.214199 0.119775 -0.301501
v -0.006122 0.382750 -0.067766
v 0.330544 0.193597 0.066242
v 0.006122 -0.382750 0.067766
v -0.330544 -0.193597 -0.066242
v -0.330544 0.186278 0.084667
v 0.006122 0.231906 0.311944
v 0.214199 -0.119775 0.301501
v -0.194378 -0.124298 0.312886
vn 0.559800 -0.317100 -0.765600
vn 0.923100 0.142000 -0.357500
vn -0.028000 0.013100 -0.999500
vn -0.028000 0.676400 -0.736000
vn 0.559800 0.756000 -0.339200
vn 0.944400 -0.121300 0.305400
vn 0.356700 -0.864200 -0.354800
vn -0.594400 -0.329900 -0.733400
vn -0.594400 0.743200 -0.307100
vn 0.356700 0.872100 0.335000
vn 0.594400 -0.743200 0.307100
vn -0.356700 -0.872100 -0.335000
vn -0.944400 0.121300 -0.305400
vn -0.356700 0.864200 0.354800
vn 0.594400 0.329900 0.733400
vn 0.028000 -0.676400 0.736000
vn -0.559800 -0.756000 0.339200
vn -0.923100 -0.142000 0.357500
vn -0.559800 0.317100 0.765600
vn 0.028000 -0.013100 0.999500
s off
f 1//1 2//1 3//1
f 2//2 1//2 6//2
f 1//3 3//3 4//3
f 1//4 4//4 5//4
f 1//5 5//5 6//5
f 2//6 6//6 11//6
f 3//7 2//7 7//7
f 4//8 3//8 8//8
f 5//9 4//9 9//9
f 6//10 5//10 10//10
f 2//11 11//11 7//11
f 3//12 7//12 8//12
f 4//13 8//13 9//13
f 5//14 9//14 10//14
f 6//15 10//15 11//15
f 7//16 11//16 12//16
f 8//17 7//17 12//17
f 9//18 8//18 12//18
f 10//19 9//19 12//19
f 11//20 10//20 12//20
o head_Icosphere
v 0.368393 0.710627 0.414508
v 1.316242 0.013707 1.206264
v 0.383879 -0.707379 0.417775
v -0.851325 -0.011697 0.454007
v -0.682329 1.139348 1.264902
v 0.657294 1.155037 1.729813
v 0.682329 -1.139348 1.735098
v -0.657294 -1.155037 1.270187
v -1.316242 -0.013707 1.793736
v -0.383879 0.707379 2.582225
v 0.851325 0.011697 2.545993
v -0.368393 -0.710627 2.585492
vn 0.643400 0.005300 -0.765600
vn 0.728400 0.584500 -0.357500
vn -0.030800 -0.002600 -0.999500
vn -0.362400 0.571700 -0.736000
vn 0.106800 0.934600 -0.339200
vn 0.878600 0.367100 0.305400
vn 0.741000 -0.570100 -0.354800
vn -0.349800 -0.582900 -0.733400
vn -0.886400 0.346500 -0.307100
vn -0.127200 0.933600 0.335000
vn 0.886400 -0.346500 0.307100
vn 0.127200 -0.933600 -0.335000
vn -0.878600 -0.367100 -0.305400
vn -0.741000 0.570100 0.354800
vn 0.349800 0.582900 0.733400
vn 0.362400 -0.571700 0.736000
vn -0.106800 -0.934600 0.339200
vn -0.728400 -0.584500 0.357500
vn -0.643400 -0.005300 0.765600
vn 0.030800 0.002600 0.999500
s off
f 13//21 14//21 15//21
f 14//22 13//22 18//22
f 13//23 15//23 16//23
f 13//24 16//24 17//24
f 13//25 17//25 18//25
f 14//26 18//26 23//26
f 15//27 14//27 19//27
f 16//28 15//28 20//28
f 17//29 16//29 21//29
f 18//30 17//30 22//30
f 14//31 23//31 19//31
f 15//32 19//32 20//32
f 16//33 20//33 21//33
f 17//34 21//34 22//34
f 18//35 22//35 23//35
f 19//36 23//36 24//36
f 20//37 19//37 24//37
f 21//38 20//38 24//38
f 22//39 21//39 24//39
f 23//40 22//40 24//40
o gun_Cylinder.006
v -1.503463 0.665989 0.489730
v -1.503468 0.665989 -2.914943
v -1.733836 1.125628 0.489730
v -1.733841 1.125628 -2.914943
v -2.194582 1.125628 0.489731
v -2.194587 1.125628 -2.914943
v -2.424955 0.665989 0.489731
v -2.424959 0.665989 -2.914943
v -2.194582 0.206350 0.489731
v -2.194586 0.206350 -2.914943
v -1.733836 0.206350 0.489730
v -1.733840 0.206350 -2.914943
v -1.747499 0.665989 -3.293617
v -1.855857 0.882183 -3.293617
v -2.072571 0.882183 -3.293616
v -2.180928 0.665989 -3.293616
v -2.072571 0.449795 -3.293616
v -1.855857 0.449795 -3.293617
v -1.747500 0.665989 -3.687436
v -1.855857 0.882183 -3.687436
v -2.072572 0.882183 -3.687436
v -2.180929 0.665989 -3.687436
v -2.072572 0.449795 -3.687436
v -1.855857 0.449795 -3.687436
v -1.503463 0.665989 0.489730
v -1.733836 1.125628 0.489730
v -2.194582 1.125628 0.489731
v -2.424955 0.665989 0.489731
v -2.194582 0.206350 0.489731
v -1.733836 0.206350 0.489730
v -2.098723 0.005220 0.275196
v -2.098723 0.005220 -0.185478
v -1.829695 0.005221 0.275195
v -1.829696 0.005221 -0.185479
v -2.098722 -1.191625 0.275196
v -2.098722 -1.191625 -0.185478
v -1.829694 -1.191625 0.275195
v -1.829695 -1.191625 -0.185479
v -2.098723 0.005220 -0.185478
vn 0.894000 0.448100 -0.000000
vn -0.000000 1.000000 0.000000
vn -0.894000 0.448100 0.000000
vn -0.894000 -0.448100 0.000000
vn 0.774600 -0.388200 -0.499200
vn 0.894000 -0.448100 -0.000000
vn 0.902700 -0.430200 -0.000000
vn 0.000000 0.000000 1.000000
vn -0.000000 -0.841200 -0.540800
vn -0.774600 -0.388300 -0.499200
vn -0.774600 0.388300 -0.499200
vn -0.000000 0.841200 -0.540800
vn 0.774600 0.388300 -0.499200
vn -0.000000 0.000000 -1.000000
vn 0.000000 -1.000000 0.000000
vn 1.000000 0.000000 -0.000000
vn 0.000000 -0.997300 -0.073500
vn 0.000000 -0.729500 0.683900
vn -0.902700 -0.430200 0.000000
vn -1.000000 -0.000000 0.000000
vn -0.774600 0.388200 -0.499200
vn 0.774600 0.388200 -0.499200
s off
f 25//41 26//41 28//41
f 27//42 28//42 30//42
f 29//43 30//43 32//43
f 32//44 34//44 33//44
f 36//45 42//45 37//45
f 36//46 26//46 25//46
f 36//47 35//47 57//47
f 25//48 49//48 54//48
f 37//46 42//46 48//46
f 34//49 41//49 42//49
f 34//50 32//50 40//50
f 30//51 39//51 40//51
f 28//52 38//52 39//52
f 28//53 26//53 37//53
f 46//54 43//54 48//54
f 41//55 47//55 48//55
f 41//44 40//44 46//44
f 39//43 45//43 46//43
f 39//42 38//42 44//42
f 37//41 43//41 44//41
f 52//48 53//48 54//48
f 35//48 54//48 53//48
f 33//48 53//48 52//48
f 31//48 52//48 51//48
f 29//48 51//48 50//48
f 27//48 50//48 49//48
f 57//56 61//56 62//56
f 36//57 58//57 56//57
f 35//58 33//58 55//58
f 34//59 56//59 55//59
f 59//55 60//55 62//55
f 58//54 62//54 60//54
f 55//48 59//48 61//48
f 63//60 60//60 59//60
f 27//41 25//41 28//41
f 29//42 27//42 30//42
f 31//43 29//43 32//43
f 31//44 32//44 33//44
f 26//45 36//45 37//45
f 35//46 36//46 25//46
f 58//47 36//47 57//47
f 35//48 25//48 54//48
f 43//46 37//46 48//46
f 36//49 34//49 42//49
f 41//50 34//50 40//50
f 32//61 30//61 40//61
f 30//52 28//52 39//52
f 38//62 28//62 37//62
f 45//54 44//54 43//54
f 47//54 46//54 48//54
f 45//54 43//54 46//54
f 42//55 41//55 48//55
f 47//44 41//44 46//44
f 40//43 39//43 46//43
f 45//42 39//42 44//42
f 38//41 37//41 44//41
f 50//48 52//48 49//48
f 50//48 51//48 52//48
f 33//48 35//48 53//48
f 31//48 33//48 52//48
f 52//48 54//48 49//48
f 29//48 31//48 51//48
f 27//48 29//48 50//48
f 25//48 27//48 49//48
f 58//56 57//56 62//56
f 34//57 36//57 56//57
f 57//58 35//58 55//58
f 33//59 34//59 55//59
f 61//55 59//55 62//55
f 63//54 58//54 60//54
f 57//48 55//48 61//48
f 55//60 63//60 59//60
o upperArmR_Icosphere.001
v -0.525097 -2.703446 -0.795156
v 0.526354 -2.703439 -0.794400
v 0.000199 -3.382400 -0.188004
v -0.850719 -2.891444 0.186778
v -0.850441 -1.909049 -0.188004
v 0.000634 -1.792866 -0.794400
v 0.850571 -2.891438 0.188004
v -0.000503 -3.007621 0.794400
v -0.526224 -2.097047 0.794400
v -0.000069 -1.418086 0.188004
v 0.850849 -1.909043 -0.186778
v 0.525227 -2.097040 0.795156
v -0.523557 -2.702557 -2.937717
v 0.527894 -2.702550 -2.936962
v 0.002173 -1.791977 -2.936962
vn 0.000500 -0.666400 -0.745600
vn -0.866000 0.500000 -0.000400
vn -0.577100 -0.745200 -0.334100
vn -0.933900 -0.127200 -0.334100
vn -0.576800 0.333600 -0.745600
vn 0.577900 0.333600 -0.744800
vn 0.577600 -0.745200 -0.333200
vn -0.357000 -0.872800 0.332700
vn -0.934400 0.127200 0.332700
vn -0.356600 0.872800 -0.333200
vn 0.934400 -0.127200 -0.332700
vn 0.356600 -0.872800 0.333200
vn -0.577900 -0.333600 0.744800
vn -0.577600 0.745200 0.333200
vn 0.357000 0.872800 -0.332700
vn 0.933900 0.127200 0.334100
vn 0.576800 -0.333600 0.745600
vn -0.000700 -0.000400 1.000000
vn -0.000500 0.666400 0.745600
vn 0.577100 0.745200 0.334100
vn 0.000700 0.000400 -1.000000
vn 0.866000 0.500000 0.000800
vn 0.000000 -1.000000 -0.000400
s off
f 64//63 65//63 66//63
f 64//64 69//64 78//64
f 64//65 66//65 67//65
f 64//66 67//66 68//66
f 64//67 68//67 69//67
f 65//68 69//68 74//68
f 66//69 65//69 70//69
f 67//70 66//70 71//70
f 68//71 67//71 72//71
f 69//72 68//72 73//72
f 65//73 74//73 70//73
f 66//74 70//74 71//74
f 67//75 71//75 72//75
f 68//76 72//76 73//76
f 69//77 73//77 74//77
f 70//78 74//78 75//78
f 71//79 70//79 75//79
f 72//80 71//80 75//80
f 73//81 72//81 75//81
f 74//82 73//82 75//82
f 77//83 76//83 78//83
f 65//84 77//84 78//84
f 64//85 76//85 77//85
f 76//64 64//64 78//64
f 69//84 65//84 78//84
f 65//85 64//85 77//85
o foreArmR_Cylinder.001
v -0.000441 -2.048180 -5.286824
v -0.000369 -1.796213 -2.936014
v 0.300109 -2.569089 -5.286824
v 0.518211 -2.695009 -2.936013
v -0.301287 -2.569262 -5.286824
v -0.519459 -2.695308 -2.936013
v -0.000387 -1.859105 -6.126444
v 0.463771 -2.663579 -6.126444
v -0.465003 -2.663847 -6.126444
vn 0.864900 0.499000 -0.053500
vn -0.864800 0.499300 -0.053500
vn 0.000300 -0.998600 -0.053500
vn 0.000000 0.000000 1.000000
vn -0.860600 0.496900 0.111800
vn -0.000000 0.000000 -1.000000
vn 0.000300 -0.993700 0.111900
vn 0.860700 0.496600 0.111900
s off
f 80//86 82//86 81//86
f 84//87 80//87 79//87
f 81//88 82//88 84//88
f 82//89 80//89 84//89
f 79//90 85//90 87//90
f 85//91 86//91 87//91
f 81//92 83//92 87//92
f 81//93 86//93 85//93
f 79//86 80//86 81//86
f 83//87 84//87 79//87
f 83//88 81//88 84//88
f 83//90 79//90 87//90
f 86//92 81//92 87//92
f 79//93 81//93 85//93
o upperArmL_Icosphere.003
v 0.525093 2.703446 -0.795156
v -0.526358 2.703439 -0.794400
v -0.000204 3.382400 -0.188004
v 0.850715 2.891445 0.186778
v 0.850438 1.909050 -0.188004
v -0.000636 1.792866 -0.794400
v -0.850575 2.891436 0.188004
v 0.000499 3.007621 0.794400
v 0.526221 2.097048 0.794400
v 0.000067 1.418086 0.188004
v -0.850852 1.909041 -0.186778
v -0.525230 2.097040 0.795156
v 0.523554 2.702558 -2.937717
v -0.527897 2.702550 -2.936962
v -0.002176 1.791977 -2.936962
vn -0.000500 0.666400 -0.745600
vn 0.866000 -0.500000 -0.000400
vn 0.577100 0.745200 -0.334100
vn 0.933900 0.127200 -0.334100
vn 0.576800 -0.333600 -0.745600
vn -0.577900 -0.333600 -0.744800
vn -0.577600 0.745200 -0.333200
vn 0.357000 0.872800 0.332700
vn 0.934400 -0.127200 0.332700
vn 0.356600 -0.872800 -0.333200
vn -0.934400 0.127200 -0.332700
vn -0.356600 0.872800 0.333200
vn 0.577900 0.333600 0.744800
vn 0.577600 -0.745200 0.333200
vn -0.357000 -0.872800 -0.332700
vn -0.933900 -0.127200 0.334100
vn -0.576800 0.333600 0.745600
vn 0.000700 0.000400 1.000000
vn 0.000500 -0.666400 0.745600
vn -0.577100 -0.745200 0.334100
vn -0.000700 -0.000400 -1.000000
vn -0.866000 -0.500000 0.000800
vn -0.000000 1.000000 -0.000400
s off
f 88//94 89//94 90//94
f 93//95 102//95 100//95
f 88//96 90//96 91//96
f 88//97 91//97 92//97
f 88//98 92//98 93//98
f 89//99 93//99 98//99
f 90//100 89//100 94//100
f 91//101 90//101 95//101
f 92//102 91//102 96//102
f 93//103 92//103 97//103
f 89//104 98//104 94//104
f 90//105 94//105 95//105
f 91//106 95//106 96//106
f 92//107 96//107 97//107
f 93//108 97//108 98//108
f 94//109 98//109 99//109
f 95//110 94//110 99//110
f 96//111 95//111 99//111
f 97//112 96//112 99//112
f 98//113 97//113 99//113
f 101//114 100//114 102//114
f 89//115 101//115 102//115
f 88//116 100//116 101//116
f 88//95 93//95 100//95
f 93//115 89//115 102//115
f 89//116 88//116 101//116
o foreArmL_Cylinder.000
v 0.000438 2.048180 -5.286811
v 0.000367 1.796213 -2.936001
v -0.300112 2.569088 -5.286811
v -0.518215 2.695008 -2.936000
v 0.301283 2.569263 -5.286811
v 0.519456 2.695309 -2.936000
v 0.000385 1.859105 -6.126431
v -0.463775 2.663579 -6.126431
v 0.464999 2.663848 -6.126431
vn -0.864900 -0.499000 -0.053500
vn 0.864800 -0.499300 -0.053500
vn -0.000300 0.998600 -0.053500
vn 0.000000 -0.000000 1.000000
vn 0.860600 -0.496900 0.111800
vn -0.000000 0.000000 -1.000000
vn -0.000300 0.993700 0.111900
vn -0.860700 -0.496600 0.111900
s off
f 104//117 106//117 105//117
f 107//118 108//118 104//118
f 105//119 106//119 108//119
f 106//120 104//120 108//120
f 103//121 109//121 111//121
f 109//122 110//122 111//122
f 105//123 107//123 111//123
f 105//124 110//124 109//124
f 103//117 104//117 105//117
f 103//118 107//118 104//118
f 107//119 105//119 108//119
f 107//121 103//121 111//121
f 110//123 105//123 111//123
f 103//124 105//124 109//124
