# Blender v2.71 (sub 0) OBJ File: 'cloneGun.blend'
# www.blender.org
v -0.050321 0.225167 -0.312886
v 0.288096 0.246899 -0.084667
v 0.215826 -0.085070 -0.311945
v -0.185812 -0.160316 -0.301501
v -0.361761 0.125155 -0.067766
v -0.068869 0.376824 0.066242
v 0.361761 -0.125155 0.067766
v 0.068869 -0.376824 -0.066242
v -0.288096 -0.246899 0.084667
v -0.215826 0.085070 0.311944
v 0.185812 0.160316 0.301501
v 0.050321 -0.225167 0.312886
vn 0.489500 0.417600 -0.765600
vn 0.182300 0.916000 -0.357500
vn -0.021900 -0.021800 -0.999500
vn -0.645100 0.205000 -0.736000
vn -0.519000 0.784600 -0.339200
vn 0.437000 0.846000 0.305400
vn 0.934100 0.039600 -0.354800
vn 0.106700 -0.671400 -0.733400
vn -0.901700 -0.304300 -0.307100
vn -0.697500 0.633400 0.335000
vn 0.901700 0.304300 0.307100
vn 0.697500 -0.633400 -0.335000
vn -0.437000 -0.846000 -0.305400
vn -0.934100 -0.039600 0.354800
vn -0.106700 0.671400 0.733400
vn 0.645100 -0.205000 0.736000
vn 0.519000 -0.784600 0.339200
vn -0.182300 -0.916000 0.357500
vn -0.489500 -0.417600 0.765600
vn 0.021900 0.021800 0.999500
s off
f 1//1 2//1 3//1
f 2//2 1//2 6//2
f 1//3 3//3 4//3
f 1//4 4//4 5//4
f 1//5 5//5 6//5
f 2//6 6//6 11//6
f 3//7 2//7 7//7
f 4//8 3//8 8//8
f 5//9 4//9 9//9
f 6//10 5//10 10//10
f 2//11 11//11 7//11
f 3//12 7//12 8//12
f 4//13 8//13 9//13
f 5//14 9//14 10//14
f 6//15 10//15 11//15
f 7//16 11//16 12//16
f 8//17 7//17 12//17
f 9//18 8//18 12//18
f 10//19 9//19 12//19
f 11//20 10//20 12//20
v -0.710627 0.368393 0.414508
v -0.013707 1.316242 1.206264
v 0.707379 0.383879 0.417775
v 0.011697 -0.851325 0.454007
v -1.139348 -0.682329 1.264902
v -1.155037 0.657294 1.729813
v 1.139348 0.682329 1.735098
v 1.155037 -0.657294 1.270187
v 0.013707 -1.316242 1.793736
v -0.707379 -0.383879 2.582225
v -0.011697 0.851325 2.545993
v 0.710627 -0.368393 2.585492
vn -0.005300 0.643400 -0.765600
vn -0.584500 0.728400 -0.357500
vn 0.002600 -0.030800 -0.999500
vn -0.571700 -0.362400 -0.736000
vn -0.934600 0.106800 -0.339200
vn -0.367100 0.878600 0.305400
vn 0.570100 0.741000 -0.354800
vn 0.582900 -0.349800 -0.733400
vn -0.346500 -0.886400 -0.307100
vn -0.933600 -0.127200 0.335000
vn 0.346500 0.886400 0.307100
vn 0.933600 0.127200 -0.335000
vn 0.367100 -0.878600 -0.305400
vn -0.570100 -0.741000 0.354800
vn -0.582900 0.349800 0.733400
vn 0.571700 0.362400 0.736000
vn 0.934600 -0.106800 0.339200
vn 0.584500 -0.728400 0.357500
vn 0.005300 -0.643400 0.765600
vn -0.002600 0.030800 0.999500
s off
f 13//21 14//21 15//21
f 14//22 13//22 18//22
f 13//23 15//23 16//23
f 13//24 16//24 17//24
f 13//25 17//25 18//25
f 14//26 18//26 23//26
f 15//27 14//27 19//27
f 16//28 15//28 20//28
f 17//29 16//29 21//29
f 18//30 17//30 22//30
f 14//31 23//31 19//31
f 15//32 19//32 20//32
f 16//33 20//33 21//33
f 17//34 21//34 22//34
f 18//35 22//35 23//35
f 19//36 23//36 24//36
f 20//37 19//37 24//37
f 21//38 20//38 24//38
f 22//39 21//39 24//39
f 23//40 22//40 24//40
v 0.570245 2.465799 0.274168
v 0.570249 6.210939 0.274170
v 0.316834 2.465799 0.779771
v 0.316839 6.210939 0.779773
v -0.189986 2.465799 0.779771
v -0.189981 6.210940 0.779773
v -0.443396 2.465800 0.274167
v -0.443391 6.210941 0.274170
v -0.189986 2.465800 -0.231436
v -0.189981 6.210941 -0.231433
v 0.316835 2.465799 -0.231435
v 0.316839 6.210940 -0.231433
v 0.301815 6.627481 0.274170
v 0.182622 6.627481 0.511984
v -0.055763 6.627481 0.511984
v -0.174956 6.627481 0.274170
v -0.055763 6.627481 0.036357
v 0.182623 6.627481 0.036357
v 0.301816 7.060682 0.274170
v 0.182623 7.060682 0.511984
v -0.055763 7.060683 0.511984
v -0.174956 7.060683 0.274170
v -0.055763 7.060683 0.036357
v 0.182623 7.060683 0.036357
v 0.570245 2.465799 0.274168
v 0.316834 2.465799 0.779771
v -0.189986 2.465799 0.779771
v -0.443396 2.465800 0.274167
v -0.189986 2.465800 -0.231436
v 0.316835 2.465799 -0.231435
v -0.084540 2.701789 -0.452678
v -0.084540 3.208530 -0.452677
v 0.211390 2.701788 -0.452678
v 0.211391 3.208530 -0.452677
v -0.084540 2.701789 -1.769208
v -0.084539 3.208531 -1.769208
v 0.211390 2.701789 -1.769208
v 0.211391 3.208530 -1.769208
v -0.084540 3.208530 -0.452677
vn 0.894000 -0.000000 0.448100
vn 0.000000 -0.000000 1.000000
vn -0.894000 0.000000 0.448100
vn -0.894000 0.000000 -0.448100
vn 0.774600 0.499200 -0.388200
vn 0.894000 -0.000000 -0.448100
vn 0.902700 -0.000000 -0.430200
vn 0.000000 0.540800 -0.841200
vn -0.774600 0.499200 -0.388200
vn -0.774600 0.499200 0.388300
vn 0.000000 0.540800 0.841200
vn 0.774600 0.499200 0.388200
vn 0.000000 1.000000 0.000000
vn 0.000000 0.000000 -1.000000
vn -0.000000 -1.000000 -0.000000
vn 1.000000 -0.000000 0.000000
vn 0.000000 0.073500 -0.997300
vn -0.000000 -0.683900 -0.729500
vn -0.902700 0.000000 -0.430200
vn -1.000000 0.000000 -0.000000
vn 0.774600 0.499200 0.388300
s off
f 26//41 28//41 27//41
f 28//42 30//42 29//42
f 29//43 30//43 32//43
f 32//44 34//44 33//44
f 36//45 42//45 37//45
f 36//46 26//46 25//46
f 36//47 35//47 57//47
f 25//42 49//42 54//42
f 37//46 42//46 48//46
f 36//48 34//48 41//48
f 34//49 32//49 40//49
f 30//50 39//50 40//50
f 28//51 38//51 39//51
f 28//52 26//52 37//52
f 43//53 48//53 47//53
f 41//54 47//54 48//54
f 40//44 46//44 47//44
f 39//43 45//43 46//43
f 38//42 44//42 45//42
f 37//41 43//41 44//41
f 52//55 53//55 54//55
f 35//42 54//42 53//42
f 33//42 53//42 52//42
f 31//42 52//42 51//42
f 29//42 51//42 50//42
f 27//42 50//42 49//42
f 57//56 61//56 62//56
f 34//57 36//57 58//57
f 35//58 33//58 55//58
f 34//59 56//59 55//59
f 60//54 62//54 61//54
f 58//53 62//53 60//53
f 55//55 59//55 61//55
f 63//60 60//60 59//60
f 25//41 26//41 27//41
f 27//42 28//42 29//42
f 31//43 29//43 32//43
f 31//44 32//44 33//44
f 26//45 36//45 37//45
f 35//46 36//46 25//46
f 58//47 36//47 57//47
f 35//42 25//42 54//42
f 43//46 37//46 48//46
f 42//48 36//48 41//48
f 41//49 34//49 40//49
f 32//50 30//50 40//50
f 30//51 28//51 39//51
f 38//61 28//61 37//61
f 43//53 46//53 44//53
f 42//54 41//54 48//54
f 41//44 40//44 47//44
f 46//53 45//53 44//53
f 43//53 47//53 46//53
f 40//43 39//43 46//43
f 39//42 38//42 45//42
f 38//41 37//41 44//41
f 50//55 52//55 49//55
f 50//55 51//55 52//55
f 33//42 35//42 53//42
f 31//42 33//42 52//42
f 52//55 54//55 49//55
f 29//42 31//42 51//42
f 27//42 29//42 50//42
f 25//42 27//42 49//42
f 58//56 57//56 62//56
f 56//57 34//57 58//57
f 57//58 35//58 55//58
f 33//59 34//59 55//59
f 59//54 60//54 61//54
f 63//53 58//53 60//53
f 57//55 55//55 61//55
f 55//60 63//60 59//60
v 1.876832 -0.719720 -0.920132
v 2.707843 -0.160835 -0.599790
v 2.798094 -1.197435 -0.750981
v 1.904429 -1.651181 -0.433115
v 1.261871 -0.894989 -0.085475
v 1.758412 0.026085 -0.188489
v 3.249041 -0.746888 0.085210
v 2.752500 -1.667962 0.188224
v 1.803070 -1.481042 0.599525
v 1.712818 -0.444442 0.750715
v 2.606483 0.009304 0.432850
v 2.634080 -0.922157 0.919867
v 1.496418 0.725781 -2.455184
v 2.327429 1.284666 -2.134842
v 1.377999 1.471586 -1.723541
vn 0.258600 0.161400 -0.952400
vn -0.977600 -0.204200 0.050000
vn -0.078400 -0.463700 -0.882500
vn -0.722900 -0.336900 -0.603300
vn -0.784100 0.366700 -0.500700
vn 0.128500 0.980500 -0.148900
vn 0.834200 0.150000 -0.530700
vn 0.288900 -0.861500 -0.417600
vn -0.753800 -0.656200 0.034100
vn -0.852900 0.482200 0.200200
vn 0.753800 0.656200 -0.034100
vn 0.852900 -0.482200 -0.200200
vn -0.128500 -0.980500 0.148900
vn -0.834200 -0.150000 0.530700
vn -0.288900 0.861500 0.417600
vn 0.722900 0.336900 0.603300
vn 0.784100 -0.366700 0.500700
vn 0.177600 -0.674700 0.716500
vn -0.258600 -0.161400 0.952400
vn 0.078400 0.463700 0.882500
vn -0.177600 0.674700 -0.716500
vn 0.391300 0.716400 0.577600
vn 0.586400 -0.512200 -0.627600
s off
f 64//62 65//62 66//62
f 69//63 78//63 76//63
f 64//64 66//64 67//64
f 64//65 67//65 68//65
f 64//66 68//66 69//66
f 65//67 69//67 74//67
f 66//68 65//68 70//68
f 67//69 66//69 71//69
f 68//70 67//70 72//70
f 69//71 68//71 73//71
f 65//72 74//72 70//72
f 66//73 70//73 71//73
f 67//74 71//74 72//74
f 68//75 72//75 73//75
f 69//76 73//76 74//76
f 70//77 74//77 75//77
f 71//78 70//78 75//78
f 72//79 71//79 75//79
f 73//80 72//80 75//80
f 74//81 73//81 75//81
f 77//82 76//82 78//82
f 65//83 77//83 78//83
f 65//84 64//84 76//84
f 64//63 69//63 76//63
f 69//83 65//83 78//83
f 77//84 65//84 76//84
v 0.440798 2.410100 -0.938796
v 1.866631 0.605345 -1.486206
v 0.701271 2.802142 -1.313140
v 2.316061 1.281790 -2.132112
v 0.226043 2.482267 -1.496207
v 1.496084 0.729865 -2.447984
v -0.080699 2.930364 -0.493738
v 0.321567 3.535821 -1.071862
v -0.412361 3.041816 -1.354585
vn 0.628800 0.276300 0.726900
vn -0.738100 -0.644100 0.201000
vn 0.011600 0.483700 -0.875200
vn 0.611200 -0.720000 -0.328700
vn -0.633600 -0.759800 0.145700
vn -0.611200 0.720000 0.328700
vn 0.112400 0.362500 -0.925200
vn 0.726700 0.156000 0.669000
s off
f 80//85 82//85 81//85
f 83//86 84//86 80//86
f 81//87 82//87 84//87
f 82//88 80//88 84//88
f 79//89 85//89 87//89
f 85//90 86//90 87//90
f 81//91 83//91 87//91
f 81//92 86//92 85//92
f 79//85 80//85 81//85
f 79//86 83//86 80//86
f 83//87 81//87 84//87
f 83//89 79//89 87//89
f 86//91 81//91 87//91
f 79//92 81//92 85//92
v -2.538217 1.600243 -0.559068
v -1.601547 1.139816 -0.686373
v -2.479789 0.628128 -0.955460
v -3.222640 0.864376 -0.249825
v -2.803481 1.522080 0.455365
v -1.801597 1.692304 0.185557
v -1.707073 0.119382 -0.455812
v -2.708957 -0.050842 -0.186005
v -2.909007 0.501646 0.685926
v -2.030765 1.013334 0.955013
v -1.287914 0.777086 0.249378
v -1.972337 0.041219 0.558620
v -1.797214 3.370913 -1.511020
v -0.860544 2.910487 -1.638325
v -1.060594 3.462975 -0.766395
vn 0.061400 0.380000 -0.922900
vn -0.624200 0.556200 0.548700
vn -0.618600 0.264500 -0.739800
vn -0.754400 0.639500 -0.148000
vn -0.158300 0.986800 0.034600
vn 0.870300 0.481100 -0.105200
vn 0.410000 -0.241100 -0.879600
vn -0.690300 -0.428100 -0.583300
vn -0.910000 0.178700 0.374200
vn 0.054500 0.740600 0.669700
vn 0.910000 -0.178700 -0.374200
vn -0.054500 -0.740600 -0.669700
vn -0.870300 -0.481100 0.105200
vn -0.410000 0.241100 0.879600
vn 0.690300 0.428100 0.583300
vn 0.754400 -0.639500 0.148000
vn 0.158300 -0.986800 -0.034600
vn -0.345800 -0.826400 0.444300
vn -0.061400 -0.380000 0.922900
vn 0.618600 -0.264500 0.739800
vn 0.345800 0.826400 -0.444300
vn 0.918800 -0.202300 0.339000
vn -0.294600 -0.353900 -0.887700
s off
f 88//93 89//93 90//93
f 93//94 102//94 100//94
f 88//95 90//95 91//95
f 88//96 91//96 92//96
f 88//97 92//97 93//97
f 89//98 93//98 98//98
f 90//99 89//99 94//99
f 91//100 90//100 95//100
f 92//101 91//101 96//101
f 93//102 92//102 97//102
f 89//103 98//103 94//103
f 90//104 94//104 95//104
f 91//105 95//105 96//105
f 92//106 96//106 97//106
f 93//107 97//107 98//107
f 94//108 98//108 99//108
f 95//109 94//109 99//109
f 96//110 95//110 99//110
f 97//111 96//111 99//111
f 98//112 97//112 99//112
f 101//113 100//113 102//113
f 89//114 101//114 102//114
f 89//115 88//115 100//115
f 88//94 93//94 100//94
f 93//114 89//114 102//114
f 101//115 89//115 100//115
v -0.289167 4.889612 -0.221562
v -1.361684 2.842510 -0.720437
v -0.002819 4.932156 -0.748697
v -0.867608 2.915916 -1.629975
v -0.538705 5.195207 -0.675850
v -1.792246 3.369794 -1.504283
v 0.084037 5.527520 0.219464
v 0.526263 5.593223 -0.594626
v -0.301341 5.999470 -0.482124
vn 0.777200 -0.500200 0.381800
vn -0.764200 0.256100 0.592000
vn 0.060000 0.378100 -0.923800
vn -0.452400 -0.835000 -0.313200
vn -0.835100 0.117000 0.537500
vn 0.452400 0.835000 0.313200
vn -0.015000 0.238300 -0.971100
vn 0.698700 -0.635700 0.328200
s off
f 104//116 106//116 105//116
f 108//117 104//117 103//117
f 105//118 106//118 108//118
f 106//119 104//119 108//119
f 107//120 103//120 109//120
f 109//121 110//121 111//121
f 105//122 107//122 111//122
f 105//123 110//123 109//123
f 103//116 104//116 105//116
f 107//117 108//117 103//117
f 107//118 105//118 108//118
f 111//120 107//120 109//120
f 110//122 105//122 111//122
f 103//123 105//123 109//123
