# Blender v2.69 (sub 0) OBJ File: 'head.blend'
# www.blender.org
v -55.582047 1.792855 37.619846
v -55.581856 1.792855 -37.620129
v -28.687479 -48.566479 37.619919
v -28.687290 -48.566479 -37.620060
v 25.101454 -48.566368 37.620045
v 25.101645 -48.566368 -37.619923
v 62.753593 1.793090 37.620144
v 62.753815 1.793090 -37.619827
v 25.101255 52.152393 37.620045
v 25.101446 52.152393 -37.619923
v -28.687668 52.152283 37.619919
v -28.687479 52.152283 -37.620060
v -32.734184 1.792901 -59.650612
v -16.894960 -27.865631 -59.650578
v 14.783388 -27.865568 -59.650497
v 36.958187 1.793035 -59.650433
v 14.783271 31.451546 -59.650497
v -16.895073 31.451481 -59.650578
vn -0.882089 -0.471082 -0.000002
vn 0.000002 -1.000000 0.000000
vn 0.800896 -0.598804 0.000002
vn 0.800893 0.598807 0.000002
vn -0.650838 0.347580 -0.674980
vn -0.882091 0.471079 -0.000002
vn -0.000002 1.000000 0.000000
vn -0.000003 -0.000000 1.000000
vn 0.000003 0.000000 -1.000000
vn 0.000000 0.728758 -0.684771
vn 0.584204 0.436793 -0.684045
vn 0.584206 -0.436791 -0.684045
vn 0.000003 -0.728758 -0.684771
vn -0.650837 -0.347583 -0.674980
vn -0.882089 -0.471083 -0.000002
vn 0.800895 -0.598804 0.000002
vn -0.650839 0.347580 -0.674979
vn -0.000002 0.000000 1.000000
vn 0.000002 -0.000000 -1.000000
vn -0.650838 -0.347582 -0.674979
s off
f 1//1 2//1 3//1
f 3//2 4//2 5//2
f 5//3 6//3 7//3
f 7//4 8//4 9//4
f 2//5 12//5 13//5
f 11//6 12//6 1//6
f 9//7 10//7 11//7
f 9//8 5//8 7//8
f 15//9 17//9 16//9
f 12//10 10//10 17//10
f 10//11 8//11 17//11
f 8//12 6//12 15//12
f 6//13 4//13 15//13
f 4//14 2//14 13//14
f 2//15 4//15 3//15
f 4//2 6//2 5//2
f 6//16 8//16 7//16
f 8//4 10//4 9//4
f 12//17 18//17 13//17
f 12//6 2//6 1//6
f 10//7 12//7 11//7
f 1//18 3//18 5//18
f 11//18 1//18 5//18
f 9//18 11//18 5//18
f 14//9 13//9 15//9
f 13//19 18//19 15//19
f 18//19 17//19 15//19
f 18//10 12//10 17//10
f 8//11 16//11 17//11
f 16//12 8//12 15//12
f 4//13 14//13 15//13
f 14//20 4//20 13//20
