# Blender v2.69 (sub 0) OBJ File: 'man5.blend'
# www.blender.org
mtllib man4.mtl
o Cube
v 0.818411 -0.435540 1.017797
v 0.436559 0.351365 0.005060
v 1.237012 -1.150114 0.030710
v 1.483494 -0.072941 -1.055293
v 1.834696 -0.788963 -0.233216
v 1.091314 0.605464 -0.257037
v 1.442516 -0.110559 0.565040
v 0.784750 -1.219034 -1.351816
v 0.930900 -1.333670 -2.304831
v 1.235918 -0.601678 -1.334235
v 0.792893 0.180237 -1.303036
v 1.489288 -0.509468 -2.298853
v 2.849071 0.537255 -0.420815
v 0.911776 -0.398223 -3.557696
v 0.991849 -1.164024 -1.055400
v 2.118436 0.243338 -1.126278
v 2.375859 -0.430727 -0.500046
v 1.602509 1.542438 -0.289129
v 2.089347 0.240249 0.114941
v 1.156421 -0.348577 -1.047803
v 0.538599 0.234071 -1.071799
v 0.944084 0.556515 -2.288712
v 2.709667 0.521507 -0.972965
v 2.879751 -0.068798 -0.453483
v 2.528734 1.109073 -0.453918
v 2.698817 0.518769 0.065564
v 0.934287 -1.226492 -3.286879
v 1.451712 -0.393152 -3.268291
v 0.950119 0.523166 -3.354680
v 0.690937 2.797764 0.486924
v 2.106006 1.737600 0.321031
v 1.568282 1.545622 0.889408
v 1.064785 1.350460 0.279248
v 0.003644 3.431240 0.978135
v 1.070023 3.071433 1.056639
v 0.651574 2.807222 1.602780
v 0.272488 2.533553 1.033064
v -0.155944 -0.739543 0.994713
v -0.437353 -0.015368 -0.027183
v 0.171457 -1.494012 0.006868
v -0.791870 -0.947055 -1.122125
v -0.635912 -1.623552 -0.281693
v -1.000310 -0.183578 -0.332733
v -0.844352 -0.860076 0.507699
v -0.108290 -1.212471 -1.390988
v -0.172104 -1.325564 -2.353213
v -0.550161 -0.588552 -1.412579
v -0.100147 0.186800 -1.342208
v -0.716721 -0.493256 -2.395617
v -2.216672 -1.247528 -0.573511
v -0.029640 -0.391305 -3.598990
v 0.123626 -1.334147 -1.086993
v -1.454401 -1.045833 -1.229678
v -1.323452 -1.737383 -0.579867
v -1.405704 0.361983 -0.430409
v -1.510619 -1.024512 0.010376
v -0.491766 -0.750186 -1.110765
v -0.241364 0.002585 -1.103168
v -0.158920 0.564621 -2.337094
v -2.080197 -1.200507 -1.118617
v -1.978066 -1.728534 -0.573926
v -2.229230 -0.656906 -0.626049
v -2.127098 -1.184932 -0.081358
v -0.087923 -1.218979 -3.331717
v -0.592709 -0.378128 -3.357967
v -0.072091 0.530678 -3.399518
v -0.517671 1.698082 0.354870
v -1.939994 0.379682 0.138819
v -1.449471 0.408392 0.746961
v -0.915181 0.390693 0.177733
v 0.140461 2.344609 0.868499
v -0.932424 1.996196 0.886174
v -0.555475 1.749865 1.469617
v -0.140722 1.451751 0.938313
v 0.017402 2.000688 0.364516
v 0.569116 3.088569 -0.429965
v 0.017402 4.109002 0.216988
v -0.534312 3.088568 -0.429965
v 0.017402 3.088568 0.364516
v 0.017402 3.088568 -1.224446
v 0.017402 1.619405 0.235460
v 0.569116 2.000689 -0.429965
v 0.017402 2.000689 -1.224446
v -0.534311 2.000688 -0.429965
v 0.017402 1.418207 -0.429965
v 0.479495 1.619405 -0.429965
v 0.017402 1.619406 -1.095391
v -0.444691 1.619405 -0.429965
v 0.017402 4.545396 -0.009419
v -0.431863 4.109002 -0.429965
v 0.017402 4.109002 -1.076918
v 0.466668 4.109002 -0.429965
v 0.017402 5.093374 -0.028372
v -0.274639 4.545396 -0.429965
v 0.017402 4.545396 -0.850511
v 0.309443 4.545396 -0.429965
v 0.017402 5.484465 -0.108914
v -0.261477 5.093374 -0.429965
v 0.017402 5.093374 -0.831558
v 0.296281 5.093374 -0.429965
v 0.017402 5.857926 -0.300008
v -0.205546 5.484465 -0.429965
v 0.017402 5.484465 -0.751016
v 0.240350 5.484465 -0.429965
v 0.017402 6.064520 -0.429965
v -0.072845 5.857926 -0.429965
v 0.017402 5.857927 -0.559922
v 0.107648 5.857926 -0.429965
v 0.551371 0.083029 0.759115
v 1.194865 -0.236641 0.912914
v 0.820676 0.532544 -0.052158
v 0.354394 -0.629195 1.003720
v -0.002347 0.142028 -0.011307
v 1.094639 -0.936027 0.776523
v 0.750195 -1.353742 0.016443
v 1.606861 -0.942172 -0.026966
v 0.442721 0.393651 -0.765025
v 1.307986 -0.169329 -1.008481
v 1.213443 -1.189034 -0.739859
v 1.695849 0.021980 0.217830
v 1.191632 0.801108 -0.262321
v 2.048401 -0.636482 -0.440193
v 1.735969 0.033608 -1.117978
v 1.771408 -0.627316 -0.843361
v 1.185336 0.472030 -0.862141
v 1.712139 -0.602003 0.370974
v 1.183138 0.390290 0.354022
v 2.318776 -0.261439 -0.966909
v 1.823097 0.902853 0.305746
v 0.672541 0.090356 -1.167167
v 1.106498 -0.522191 -1.160605
v 0.779771 -1.149288 -1.173517
v 0.887469 0.377646 -1.627514
v 1.408806 -0.594837 -1.677411
v 0.878041 -1.303686 -1.694264
v 1.121045 -1.033797 -1.337733
v 0.337986 -1.248291 -1.371297
v 0.346039 0.295054 -1.296332
v 1.127242 -0.128419 -1.327332
v 1.497033 -0.418073 -2.921500
v 0.948068 -1.308200 -2.922657
v 1.346523 -1.092896 -2.291360
v 0.379123 -1.366367 -2.328904
v 1.356154 0.134405 -2.305305
v 2.809325 0.532083 -0.090355
v 2.693868 0.918469 -0.429184
v 2.931859 0.147483 -0.428889
v 2.816402 0.533869 -0.767718
v 2.576679 0.962866 -0.843312
v 2.831805 0.077409 -0.064089
v 0.924734 0.191344 -3.523640
v 1.280801 -0.398578 -3.445074
v 0.442381 -0.394871 -3.608291
v 0.914032 -0.964510 -3.473294
v 0.440195 0.596899 -3.392299
v 2.473505 0.440446 0.112232
v 2.338002 1.313855 -0.276639
v 2.694000 -0.224048 -0.481551
v 2.489976 0.443540 -1.078503
v 1.853470 0.904373 -0.919802
v 2.296959 -0.263755 -0.035995
v 1.228696 -0.887799 -1.045648
v 0.579089 -1.278918 -1.071151
v 0.148116 0.132163 -1.087585
v 0.888547 0.132445 -1.057856
v 0.964409 0.632977 -2.969982
v 0.392563 0.714156 -2.286749
v 2.839943 0.079463 -0.842986
v 2.568542 0.960813 -0.064415
v 1.318781 -0.987790 -3.256152
v 0.423597 -1.254980 -3.324168
v 1.329889 0.222230 -3.306673
v 0.746496 2.009336 0.875199
v 1.214557 2.177449 1.457795
v 1.720697 2.337672 0.908866
v 1.252636 2.169559 0.326269
v 1.986674 1.688037 -0.126191
v 1.209787 1.397635 -0.157434
v 1.965034 1.690378 0.757806
v 1.180088 1.400070 0.726375
v -0.070657 2.986418 0.988743
v 0.155786 3.277600 1.413260
v 0.411751 3.561688 1.000885
v 0.185308 3.270507 0.576368
v 0.985093 3.000652 0.635247
v 0.386941 2.597241 0.617566
v 0.955570 3.007745 1.472138
v 0.357419 2.604335 1.454457
v -0.346182 -0.217392 0.729428
v -0.594795 -0.804023 0.869723
v -0.794621 -0.123133 -0.111386
v 0.045793 -1.269267 0.757563
v -0.342734 -1.580692 -0.068887
v -0.409174 0.010101 -0.797316
v -0.638013 -0.894889 -1.073930
v 0.203314 -1.490173 -0.770330
v -1.088374 -0.927104 0.143098
v -1.043978 -0.058403 -0.350076
v -0.899132 -1.662485 -0.496902
v -1.036333 -0.974697 -1.194368
v -0.643732 -1.477963 -0.901012
v -0.953128 -0.394401 -0.935782
v -0.719191 -1.409148 0.324867
v -0.956393 -0.332749 0.283076
v -1.340513 -1.564896 -1.052348
v -1.573239 -0.310252 0.179615
v -0.087247 0.036635 -1.199784
v -0.435143 -0.614292 -1.225894
v -0.002083 -1.187668 -1.206190
v -0.163044 0.385366 -1.673594
v -0.692220 -0.579396 -1.769570
v -0.172472 -1.295966 -1.740344
v -0.441774 -1.022312 -1.406284
v -0.435576 -0.116933 -1.395884
v -0.668579 -0.402158 -3.016492
v -0.134738 -1.300243 -2.970152
v -0.583734 -1.078710 -2.376029
v -0.574103 0.148590 -2.389974
v -2.202052 -1.224492 -0.241872
v -2.264242 -0.910234 -0.597831
v -2.112589 -1.557417 -0.562430
v -2.174779 -1.243159 -0.918388
v -2.181572 -0.801387 -1.008488
v -2.028375 -1.593426 -0.191451
v -0.036881 0.198411 -3.565820
v -0.407074 -0.386174 -3.519110
v -0.047583 -0.957443 -3.515475
v -1.920418 -1.120916 -0.020949
v -2.118769 -0.292085 -0.449916
v -1.739540 -1.781611 -0.586803
v -1.863285 -1.130942 -1.210334
v -1.523377 -0.347702 -1.044737
v -1.385920 -1.558764 -0.122278
v -0.268629 -1.200856 -1.100880
v -0.498454 -0.257314 -1.112807
v -0.118396 0.640935 -3.017478
v -1.990548 -1.595734 -0.969431
v -2.214096 -0.780331 -0.230580
v -0.470088 -0.974644 -3.334620
v -0.458979 0.235377 -3.385140
v -0.614051 0.961486 0.768071
v -1.117491 1.104178 1.310825
v -1.581636 1.196431 0.723176
v -1.078196 1.053739 0.180422
v -1.795480 0.363655 -0.297830
v -1.026870 0.371913 -0.268645
v -1.828305 0.398462 0.585197
v -1.059695 0.406720 0.614383
v 0.209289 1.899965 0.900957
v -0.042974 2.208869 1.297465
v -0.266884 2.478936 0.857914
v -0.014621 2.170032 0.461405
v -0.819285 1.908722 0.474661
v -0.225508 1.500388 0.513766
v -0.847638 1.947559 1.310721
v -0.253861 1.539225 1.349826
v -0.534311 2.362701 -0.429965
v 0.017402 2.362701 -1.224446
v 0.569116 2.362701 -0.429965
v 0.017402 2.362700 0.364516
v 0.431188 3.088569 -1.025826
v 0.543504 3.797575 -0.429965
v 0.431188 3.088568 0.165896
v 0.017402 3.797575 -1.187564
v -0.508699 3.797575 -0.429965
v 0.017402 3.797575 0.327634
v -0.396383 3.088568 -1.025826
v -0.396383 3.088569 0.165896
v -0.511906 1.815325 -0.429965
v 0.017402 1.815326 -1.192182
v 0.546711 1.815326 -0.429965
v 0.017402 1.815325 0.332252
v 0.431188 2.000688 0.165896
v -0.396383 2.000688 0.165896
v 0.431188 2.000689 -1.025826
v -0.396383 2.000688 -1.025826
v -0.284358 1.468506 -0.429965
v 0.017402 1.468506 -0.864506
v 0.319162 1.468506 -0.429965
v 0.017402 1.468506 0.004576
v 0.363972 1.619405 0.069104
v -0.329168 1.619405 0.069104
v 0.363972 1.619406 -0.929034
v -0.329168 1.619405 -0.929034
v 0.376137 4.274420 -0.429965
v 0.017402 4.274420 -0.946552
v -0.341333 4.274420 -0.429965
v 0.017402 4.274420 0.086622
v -0.319547 4.109002 0.055250
v 0.354351 4.109002 0.055250
v -0.319547 4.109002 -0.915180
v 0.354351 4.109002 -0.915180
v 0.278765 4.844269 -0.429965
v 0.017402 4.844269 -0.806334
v -0.243960 4.844269 -0.429965
v 0.017402 4.844269 -0.053596
v -0.201629 4.545396 -0.114555
v 0.236433 4.545396 -0.114555
v -0.201629 4.545396 -0.745375
v 0.236433 4.545396 -0.745375
v 0.303106 5.303258 -0.429965
v 0.017402 5.303258 -0.841386
v -0.268301 5.303258 -0.429965
v 0.017402 5.303258 -0.018545
v -0.191757 5.093374 -0.128770
v 0.226562 5.093374 -0.128770
v -0.191757 5.093374 -0.731160
v 0.226561 5.093374 -0.731160
v 0.158402 5.661264 -0.429965
v 0.017402 5.661264 -0.633008
v -0.123598 5.661264 -0.429965
v 0.017402 5.661264 -0.226922
v -0.149809 5.484465 -0.189177
v 0.184613 5.484465 -0.189177
v -0.149809 5.484465 -0.670753
v 0.184613 5.484465 -0.670753
v 0.067509 6.012872 -0.429965
v 0.017402 6.012872 -0.502120
v -0.032705 6.012872 -0.429965
v 0.017402 6.012871 -0.357810
v -0.050283 5.857926 -0.332497
v 0.085087 5.857926 -0.332497
v -0.050283 5.857927 -0.527433
v 0.085087 5.857926 -0.527433
v 0.929740 0.277499 0.666148
v 1.469442 -0.734867 0.683442
v 0.890474 0.478997 -0.854258
v 1.573729 -0.863796 -0.832155
v 1.354603 0.666479 0.184870
v 1.946666 -0.468083 0.058151
v 1.384896 0.680932 -0.895675
v 1.983890 -0.472744 -0.943477
v 2.288121 1.124377 0.149661
v 2.647111 -0.056378 -0.928473
v 0.971080 -0.094857 -1.163874
v 1.051745 -0.953163 -1.162205
v 1.280959 -0.031059 -1.667915
v 1.273628 -1.092707 -1.678646
v 1.367555 0.256119 -2.948545
v 1.356113 -1.052034 -2.906865
v 2.634758 -0.058698 -0.035422
v 2.302602 1.126273 -0.861314
v 2.690036 0.831151 -0.169627
v 2.873814 0.226742 -0.169400
v 2.695592 0.832553 -0.701462
v 2.879370 0.228144 -0.701235
v 1.203121 0.036466 -3.435653
v 1.195187 -0.820628 -3.398357
v 0.853488 2.053343 1.303718
v 0.883055 2.047414 0.455097
v 1.585146 2.299582 1.328991
v 1.612698 2.293677 0.480323
v 0.093609 2.966822 1.312429
v 0.115478 2.961568 0.692510
v 0.485243 3.342026 1.323064
v 0.507112 3.336772 0.703145
v -0.727083 -0.278788 0.611302
v -0.449449 -1.353203 0.648214
v -0.774431 -0.272234 -0.915404
v -0.346760 -1.487664 -0.889502
v -1.148702 -0.224661 0.093751
v -0.964370 -1.467526 -0.002093
v -1.112829 -0.263928 -0.986549
v -0.915504 -1.501652 -1.006078
v -2.045632 -0.423705 -0.011899
v -1.753834 -1.614117 -1.040056
v -0.364065 -0.185033 -1.220966
v -0.310982 -1.024163 -1.219368
v -0.557438 -0.017548 -1.748554
v -0.564770 -1.079196 -1.759286
v -0.527355 0.270045 -3.031662
v -0.538797 -1.038108 -2.989983
v -1.801402 -1.621264 -0.147970
v -2.004040 -0.453322 -1.021657
v -2.238729 -0.952318 -0.333357
v -2.116693 -1.482261 -0.306024
v -2.217364 -0.968243 -0.864517
v -2.092970 -1.489852 -0.837216
v -0.324144 0.047690 -3.502645
v -0.332079 -0.809404 -3.465349
v 0.106554 -0.109730 0.743387
v 0.611999 -1.136991 0.763477
v 0.015553 0.198514 -0.781313
v 0.746664 -1.370650 -0.755670
v 0.292544 0.109001 -1.176974
v 0.394015 -1.198234 -1.189770
v 0.361685 0.545160 -1.611108
v 0.352517 -1.335523 -1.717189
v 0.406563 -1.339845 -2.950033
v 0.423718 0.749062 -2.991173
v 0.445310 0.226108 -3.571035
v 0.434209 -0.982934 -3.520518
v -0.749735 1.009769 1.186361
v -0.720264 0.971940 0.338558
v -1.475424 1.185978 1.152689
v -1.445952 1.148148 0.304887
v 0.022839 1.894001 1.212951
v 0.043841 1.865233 0.593647
v -0.364727 2.272309 1.182235
v -0.343725 2.243541 0.562931
v -0.396383 2.362700 0.165896
v 0.431188 2.362700 0.165896
v 0.411978 3.797575 0.138234
v -0.377174 3.797575 0.138234
v -0.396383 2.362700 -1.025826
v 0.431188 2.362701 -1.025826
v 0.411979 3.797575 -0.998164
v -0.377174 3.797575 -0.998164
v -0.379579 1.815325 0.141698
v 0.414384 1.815325 0.141698
v -0.379579 1.815325 -1.001628
v 0.414384 1.815326 -1.001628
v -0.219401 1.507628 -0.088963
v 0.254205 1.507628 -0.088963
v -0.219401 1.507628 -0.770967
v 0.254205 1.507628 -0.770967
v 0.286454 4.274420 -0.042525
v -0.251649 4.274419 -0.042525
v 0.286454 4.274420 -0.817405
v -0.251649 4.274420 -0.817406
v 0.213424 4.844269 -0.147689
v -0.178620 4.844268 -0.147689
v 0.213424 4.844268 -0.712241
v -0.178620 4.844269 -0.712242
v 0.231680 5.303258 -0.121400
v -0.196875 5.303258 -0.121400
v 0.231680 5.303258 -0.738530
v -0.196876 5.303258 -0.738531
v 0.123152 5.661264 -0.277683
v -0.088348 5.661264 -0.277683
v 0.123152 5.661264 -0.582248
v -0.088348 5.661264 -0.582248
v 0.059726 5.972701 -0.369017
v -0.024923 5.972701 -0.369017
v 0.059726 5.972701 -0.490913
v -0.024923 5.972701 -0.490913
vt 0.432028 0.473711
vt 0.439963 0.433385
vt 0.498812 0.445392
vt 0.490877 0.485718
vt 0.486909 0.524630
vt 0.427898 0.514901
vt 0.373180 0.461705
vt 0.381115 0.421379
vt 0.083845 0.511154
vt 0.000485 0.507695
vt 0.089971 0.478704
vt 0.169296 0.481570
vt 0.167205 0.514614
vt 0.083556 0.548320
vt 0.084944 0.281781
vt 0.002242 0.278556
vt 0.002497 0.236411
vt 0.085401 0.239877
vt 0.168305 0.243344
vt 0.167645 0.285006
vt 0.168869 0.316856
vt 0.090103 0.313977
vt 0.269506 0.323757
vt 0.199801 0.331640
vt 0.191942 0.310220
vt 0.267188 0.307378
vt 0.346261 0.292769
vt 0.339211 0.315874
vt 0.332610 0.340890
vt 0.270355 0.346344
vt 0.107292 0.333665
vt 0.040331 0.331825
vt 0.011336 0.311098
vt 0.174254 0.335505
vt 0.179662 0.352823
vt 0.124507 0.352187
vt 0.107466 0.456250
vt 0.174683 0.457335
vt 0.010647 0.475838
vt 0.040248 0.455165
vt 0.130644 0.438794
vt 0.181719 0.437505
vt 0.934896 0.854188
vt 0.934896 0.909594
vt 0.896553 0.847230
vt 0.934896 0.798783
vt 0.973239 0.805742
vt 0.973239 0.861147
vt 0.973239 0.916552
vt 0.235161 0.468887
vt 0.197879 0.468867
vt 0.214038 0.450953
vt 0.242626 0.450983
vt 0.272106 0.468833
vt 0.229562 0.497692
vt 0.185759 0.497680
vt 0.227696 0.548300
vt 0.181719 0.548291
vt 0.272995 0.497622
vt 0.273292 0.548226
vt 0.272995 0.599461
vt 0.228238 0.599226
vt 0.183114 0.598602
vt 0.456072 0.774162
vt 0.428125 0.745795
vt 0.442560 0.735882
vt 0.465119 0.758264
vt 0.494773 0.798312
vt 0.447024 0.790060
vt 0.413689 0.755709
vt 0.421687 0.708995
vt 0.433511 0.672802
vt 0.455078 0.685558
vt 0.442266 0.710783
vt 0.401109 0.707207
vt 0.411944 0.660046
vt 0.741843 0.645334
vt 0.679803 0.646268
vt 0.752309 0.582685
vt 0.803883 0.582974
vt 0.803883 0.644400
vt 0.734004 0.696654
vt 0.666363 0.698518
vt 0.144440 0.813231
vt 0.109965 0.813036
vt 0.144440 0.772966
vt 0.178916 0.813425
vt 0.144440 0.853495
vt 0.142890 0.709126
vt 0.142887 0.649752
vt 0.181719 0.709410
vt 0.142892 0.768499
vt 0.104032 0.770633
vt 0.104027 0.708981
vt 0.104023 0.647330
vt 0.200851 0.252832
vt 0.214771 0.279417
vt 0.186281 0.275747
vt 0.204655 0.217652
vt 0.223890 0.202897
vt 0.215422 0.229918
vt 0.274865 0.382073
vt 0.215080 0.382489
vt 0.208100 0.351798
vt 0.334650 0.381657
vt 0.336124 0.420672
vt 0.278668 0.416701
vt 0.129741 0.380883
vt 0.078525 0.381087
vt 0.069352 0.351551
vt 0.180957 0.380678
vt 0.177604 0.408337
vt 0.128486 0.409002
vt 0.079369 0.409666
vt 0.456509 0.895308
vt 0.414206 0.885178
vt 0.455987 0.827960
vt 0.498812 0.905438
vt 0.498812 0.972292
vt 0.457031 0.962655
vt 0.415250 0.953019
vt 0.835626 0.059384
vt 0.829358 0.000053
vt 0.879364 0.060061
vt 0.879364 0.120121
vt 0.841894 0.118715
vt 0.799915 0.059858
vt 0.789574 0.003354
vt 0.258272 0.290274
vt 0.303291 0.284344
vt 0.219929 0.254589
vt 0.246058 0.272807
vt 0.277503 0.277953
vt 0.321763 0.260572
vt 0.325887 0.227497
vt 0.341021 0.216846
vt 0.345570 0.257733
vt 0.297957 0.263411
vt 0.319770 0.729210
vt 0.275081 0.727467
vt 0.275815 0.656090
vt 0.320259 0.659732
vt 0.363662 0.666366
vt 0.363662 0.732045
vt 0.318227 0.785785
vt 0.274129 0.785710
vt 0.277397 0.435985
vt 0.226968 0.431538
vt 0.221212 0.412729
vt 0.327825 0.440432
vt 0.273587 0.447596
vt 0.126236 0.425794
vt 0.083402 0.426517
vt 0.169071 0.425071
vt 0.123488 0.436923
vt 0.089029 0.437505
vt 0.378849 0.655649
vt 0.378849 0.698390
vt 0.365245 0.658906
vt 0.365245 0.607808
vt 0.378849 0.612908
vt 0.392452 0.618008
vt 0.392452 0.652392
vt 0.780260 0.062633
vt 0.770236 0.013155
vt 0.810257 0.116361
vt 0.790285 0.112112
vt 0.768632 0.066560
vt 0.229866 0.628985
vt 0.187296 0.626512
vt 0.272103 0.630149
vt 0.270915 0.650563
vt 0.232037 0.648161
vt 0.192873 0.643223
vt 0.731421 0.725319
vt 0.667909 0.727527
vt 0.801645 0.694790
vt 0.794933 0.723111
vt 0.731465 0.742656
vt 0.314576 0.816556
vt 0.272741 0.817687
vt 0.356090 0.813689
vt 0.348518 0.829652
vt 0.309871 0.834423
vt 0.704069 0.830376
vt 0.743109 0.837577
vt 0.743109 0.930241
vt 0.707149 0.906221
vt 0.665029 0.823175
vt 0.700990 0.754532
vt 0.576398 0.479965
vt 0.533564 0.502998
vt 0.613593 0.408465
vt 0.658870 0.384483
vt 0.619231 0.456933
vt 0.558410 0.548548
vt 0.517410 0.570868
vt 0.852054 0.866113
vt 0.896553 0.859909
vt 0.896553 0.927993
vt 0.850218 0.933947
vt 0.803883 0.939901
vt 0.807555 0.872317
vt 0.853890 0.798279
vt 0.886989 0.255481
vt 0.918099 0.292907
vt 0.918099 0.384479
vt 0.885137 0.345237
vt 0.855879 0.218056
vt 0.859584 0.130116
vt 0.888842 0.165726
vt 0.536922 0.970105
vt 0.537498 1.000174
vt 0.499575 0.970383
vt 0.498812 0.940317
vt 0.536345 0.940037
vt 0.573878 0.939757
vt 0.574268 0.969828
vt 0.574659 0.999899
vt 0.578841 0.611296
vt 0.538451 0.633378
vt 0.599411 0.526228
vt 0.619231 0.589213
vt 0.618480 0.671126
vt 0.071082 0.872653
vt 0.032200 0.879872
vt 0.074113 0.796804
vt 0.109965 0.772771
vt 0.109965 0.865433
vt 0.068052 0.948501
vt 0.959050 0.178299
vt 0.959050 0.224377
vt 0.918099 0.222272
vt 0.918099 0.176194
vt 0.959050 0.132221
vt 1.000000 0.180403
vt 0.431375 0.557817
vt 0.490877 0.560715
vt 0.498812 0.595386
vt 0.438656 0.601597
vt 0.371873 0.554920
vt 0.368886 0.505172
vt 0.083573 0.584921
vt 0.089587 0.614949
vt 0.000844 0.580747
vt 0.000353 0.544682
vt 0.166758 0.551958
vt 0.166303 0.589096
vt 0.167943 0.618876
vt 0.085060 0.191066
vt 0.001549 0.186877
vt 0.090201 0.147913
vt 0.170185 0.152234
vt 0.168571 0.195255
vt 0.271926 0.122508
vt 0.270991 0.135926
vt 0.201537 0.142424
vt 0.209769 0.117260
vt 0.277620 0.102870
vt 0.337400 0.111176
vt 0.334084 0.127757
vt 0.333639 0.143805
vt 0.107102 0.122986
vt 0.010216 0.143592
vt 0.039316 0.120196
vt 0.124269 0.100547
vt 0.179647 0.101747
vt 0.174888 0.125777
vt 0.107284 0.632390
vt 0.173781 0.634148
vt 0.130824 0.643540
vt 0.040787 0.630632
vt 0.011230 0.611021
vt 0.919017 0.062382
vt 0.879486 0.058885
vt 0.918956 0.003893
vt 0.958548 0.007787
vt 0.958548 0.065879
vt 0.958548 0.123972
vt 0.919078 0.120871
vt 0.308379 0.468632
vt 0.298629 0.450788
vt 0.344315 0.468357
vt 0.358017 0.497081
vt 0.315691 0.497392
vt 0.270920 0.450950
vt 0.318128 0.547985
vt 0.362584 0.547662
vt 0.360667 0.597983
vt 0.317015 0.598917
vt 0.749397 0.564366
vt 0.746157 0.582360
vt 0.703573 0.564323
vt 0.696303 0.534797
vt 0.749201 0.535167
vt 0.795220 0.564408
vt 0.786049 0.582397
vt 0.460347 0.646257
vt 0.471837 0.662796
vt 0.448858 0.629718
vt 0.498812 0.607808
vt 0.494690 0.624537
vt 0.490568 0.641265
vt 0.742134 0.483559
vt 0.679876 0.482217
vt 0.666474 0.429934
vt 0.734352 0.432244
vt 0.804391 0.484900
vt 0.802098 0.535537
vt 0.419083 0.378530
vt 0.432247 0.354187
vt 0.449967 0.393868
vt 0.404776 0.405964
vt 0.388198 0.363192
vt 0.065099 0.709116
vt 0.026139 0.709390
vt 0.065097 0.649742
vt 0.065102 0.768490
vt 0.214324 0.181009
vt 0.191963 0.184386
vt 0.236504 0.154954
vt 0.257140 0.163091
vt 0.236685 0.177633
vt 0.185421 0.232407
vt 0.285044 0.068604
vt 0.217841 0.094565
vt 0.226933 0.060012
vt 0.290819 0.034645
vt 0.343156 0.077197
vt 0.130207 0.064858
vt 0.068891 0.099348
vt 0.078986 0.063707
vt 0.080703 0.028845
vt 0.129813 0.030313
vt 0.181428 0.066009
vt 0.936104 0.711292
vt 0.935423 0.778186
vt 0.894973 0.791825
vt 0.896333 0.725688
vt 0.936784 0.644399
vt 0.975874 0.629247
vt 0.975874 0.696897
vt 0.243655 0.899482
vt 0.286811 0.899307
vt 0.286811 0.959420
vt 0.243655 0.959595
vt 0.209011 0.899278
vt 0.243655 0.839369
vt 0.277841 0.151534
vt 0.315803 0.166014
vt 0.314714 0.186455
vt 0.288585 0.168237
vt 0.327859 0.193656
vt 0.336498 0.176186
vt 0.310752 0.238147
vt 0.319220 0.211126
vt 0.228798 0.727907
vt 0.229288 0.658430
vt 0.228921 0.784506
vt 0.181719 0.729440
vt 0.181719 0.663760
vt 0.291564 0.015926
vt 0.247213 0.009765
vt 0.257890 0.000000
vt 0.289794 0.004828
vt 0.335915 0.022087
vt 0.344833 0.042080
vt 0.127985 0.011309
vt 0.085146 0.010334
vt 0.090952 0.000000
vt 0.125440 0.000075
vt 0.170823 0.012284
vt 0.178922 0.031782
vt 0.443125 0.336029
vt 0.442715 0.302278
vt 0.481561 0.355000
vt 0.399456 0.337979
vt 0.404688 0.317058
vt 0.399256 0.280740
vt 0.191393 0.898318
vt 0.208940 0.955892
vt 0.191109 0.944435
vt 0.182287 0.896979
vt 0.191677 0.852201
vt 0.209082 0.842664
vt 0.313675 0.628694
vt 0.354913 0.625928
vt 0.347242 0.642685
vt 0.309222 0.647892
vt 0.732015 0.403924
vt 0.668280 0.401297
vt 0.732399 0.387102
vt 0.795749 0.406550
vt 0.802231 0.434553
vt 0.230268 0.815348
vt 0.232226 0.833311
vt 0.193229 0.827428
vt 0.187474 0.811274
vt 0.619808 0.793050
vt 0.622909 0.717235
vt 0.658870 0.693209
vt 0.658870 0.785851
vt 0.616708 0.868865
vt 0.580746 0.800250
vt 0.422018 0.231157
vt 0.378519 0.209337
vt 0.365552 0.127578
vt 0.407210 0.148753
vt 0.465516 0.252977
vt 0.486175 0.323816
vt 0.929442 0.483226
vt 0.928589 0.413411
vt 0.968469 0.498996
vt 0.968469 0.568395
vt 0.930296 0.553041
vt 0.890416 0.467456
vt 0.888709 0.397225
vt 0.528356 0.818479
vt 0.526708 0.736120
vt 0.554605 0.777563
vt 0.530004 0.900837
vt 0.505402 0.939757
vt 0.502107 0.859394
vt 0.956599 0.337537
vt 0.995100 0.336638
vt 0.956599 0.383580
vt 0.918099 0.338436
vt 0.918099 0.292393
vt 0.956599 0.291494
vt 0.995100 0.290595
vt 0.424471 0.081155
vt 0.383426 0.060195
vt 0.457767 0.020959
vt 0.465516 0.102114
vt 0.448869 0.169927
vt 0.849648 0.482607
vt 0.852745 0.558413
vt 0.810586 0.475403
vt 0.846550 0.406801
vt 0.888709 0.489811
vt 0.888709 0.582397
vt 0.332782 0.892702
vt 0.332782 0.842458
vt 0.378753 0.845721
vt 0.378753 0.895965
vt 0.332782 0.942946
vt 0.286811 0.889439
vt 0.849428 0.627962
vt 0.894973 0.627909
vt 0.849428 0.657677
vt 0.803883 0.628016
vt 0.805762 0.613084
vt 0.849457 0.613032
vt 0.893152 0.612981
vt 0.564393 0.136166
vt 0.564393 0.076465
vt 0.629974 0.136076
vt 0.564427 0.194663
vt 0.498812 0.136257
vt 0.013254 0.690861
vt 0.013254 0.653831
vt 0.026139 0.690386
vt 0.013254 0.727890
vt 0.000369 0.719920
vt 0.000369 0.691335
vt 0.000369 0.662750
vt 0.695547 0.137018
vt 0.695499 0.195583
vt 0.629974 0.136942
vt 0.695547 0.077171
vt 0.761120 0.137094
vt 0.849428 0.717257
vt 0.803883 0.717311
vt 0.894973 0.717204
vt 0.894973 0.791717
vt 0.849428 0.791771
vt 0.803883 0.791825
vt 0.806647 0.309587
vt 0.852174 0.309505
vt 0.852174 0.384315
vt 0.806647 0.384397
vt 0.761120 0.384479
vt 0.761120 0.309669
vt 0.806647 0.249769
vt 0.849545 0.597807
vt 0.887691 0.597762
vt 0.811398 0.597852
vt 0.818914 0.582469
vt 0.849662 0.582433
vt 0.880410 0.582397
vt 0.564393 0.046691
vt 0.629974 0.046600
vt 0.498812 0.046781
vt 0.564422 0.031605
vt 0.806647 0.219936
vt 0.852174 0.219854
vt 0.761120 0.249851
vt 0.761120 0.220018
vt 0.762889 0.204580
vt 0.806567 0.204501
vt 0.850245 0.204422
vt 0.695547 0.047323
vt 0.761120 0.047398
vt 0.629974 0.047247
vt 0.695505 0.032134
vt 0.140505 0.898072
vt 0.171046 0.897942
vt 0.140505 0.942324
vt 0.109965 0.898202
vt 0.140505 0.853820
vt 0.564511 0.015970
vt 0.619439 0.015894
vt 0.627340 0.031518
vt 0.501504 0.031692
vt 0.509583 0.016046
vt 0.564630 0.000061
vt 0.806326 0.187878
vt 0.844458 0.187809
vt 0.768195 0.187946
vt 0.775269 0.170715
vt 0.806005 0.170660
vt 0.836741 0.170605
vt 0.695380 0.016263
vt 0.750301 0.016326
vt 0.758415 0.032206
vt 0.632595 0.032061
vt 0.640458 0.016200
vt 0.695212 0.000051
vt 0.715837 0.958911
vt 0.715837 0.934802
vt 0.743109 0.958871
vt 0.715837 0.983019
vt 0.690915 0.980498
vt 0.690915 0.958922
vt 0.690915 0.937346
vt 0.695356 0.221583
vt 0.641959 0.221521
vt 0.632970 0.195511
vt 0.758028 0.195655
vt 0.748752 0.221645
vt 0.695187 0.235602
vt 0.376641 0.756063
vt 0.376641 0.793093
vt 0.365245 0.755477
vt 0.376641 0.719034
vt 0.388037 0.728064
vt 0.388037 0.756649
vt 0.388037 0.785235
vt 0.564528 0.220826
vt 0.511125 0.220899
vt 0.501890 0.194750
vt 0.626963 0.194577
vt 0.617932 0.220752
vt 0.564648 0.235077
vt 0.670691 0.958875
vt 0.670691 0.935853
vt 0.670691 0.981897
vt 0.653550 0.958846
vt 0.695062 0.258224
vt 0.660352 0.258184
vt 0.652550 0.235553
vt 0.737823 0.235651
vt 0.729772 0.258264
vt 0.695005 0.282995
vt 0.927386 0.968277
vt 0.927386 0.944178
vt 0.953676 0.968521
vt 0.927386 0.992376
vt 0.902975 0.989691
vt 0.902974 0.968123
vt 0.902974 0.946556
vt 0.564736 0.257840
vt 0.530022 0.257888
vt 0.522006 0.235136
vt 0.607290 0.235018
vt 0.599450 0.257792
vt 0.564777 0.282640
vt 0.637877 0.958909
vt 0.637877 0.940505
vt 0.637877 0.977314
vt 0.622322 0.970638
vt 0.622322 0.958998
vt 0.622322 0.947358
vt 0.695037 0.303460
vt 0.661892 0.303422
vt 0.728183 0.303499
vt 0.729007 0.320776
vt 0.695050 0.320736
vt 0.661093 0.320697
vt 0.882321 0.968149
vt 0.882321 0.945136
vt 0.882321 0.991162
vt 0.864977 0.968142
vt 0.564753 0.303003
vt 0.531603 0.303049
vt 0.597903 0.302958
vt 0.598706 0.320170
vt 0.564744 0.320217
vt 0.530783 0.320264
vt 0.605533 0.959045
vt 0.605533 0.951595
vt 0.605533 0.966495
vt 0.588128 0.959070
vt 0.694933 0.335941
vt 0.668435 0.335910
vt 0.721431 0.335971
vt 0.694780 0.350862
vt 0.850490 0.967891
vt 0.850490 0.949494
vt 0.850490 0.986289
vt 0.836504 0.979208
vt 0.836504 0.967573
vt 0.836504 0.955937
vt 0.564827 0.335569
vt 0.538326 0.335605
vt 0.591329 0.335532
vt 0.564936 0.350695
vt 0.354672 0.427928
vt 0.359213 0.427908
vt 0.359213 0.434436
vt 0.354672 0.434457
vt 0.350131 0.434478
vt 0.350131 0.427949
vt 0.350131 0.421421
vt 0.354672 0.421400
vt 0.359213 0.421379
vt 0.694685 0.367290
vt 0.683959 0.367278
vt 0.678022 0.350843
vt 0.711538 0.350882
vt 0.705411 0.367303
vt 0.694619 0.384472
vt 0.820658 0.967362
vt 0.820658 0.959915
vt 0.820658 0.974809
vt 0.803883 0.967206
vt 0.565003 0.367232
vt 0.554275 0.367247
vt 0.548175 0.350718
vt 0.581696 0.350672
vt 0.575730 0.367217
vt 0.565049 0.384474
vt 0.079569 0.440083
vt 0.896553 0.902635
vt 0.896553 0.791825
vt 0.498812 0.779287
vt 0.490735 0.817336
vt 0.700735 0.582397
vt 0.178916 0.773161
vt 0.178916 0.853690
vt 0.109965 0.853300
vt 0.181719 0.654592
vt 0.181719 0.764228
vt 0.413162 0.817336
vt 0.498812 0.838584
vt 0.879364 0.000000
vt 0.361769 0.785296
vt 0.314640 0.450563
vt 0.232535 0.444630
vt 0.157947 0.436341
vt 0.365245 0.710004
vt 0.392452 0.686776
vt 0.776145 0.106915
vt 0.761120 0.026205
vt 0.785982 0.740398
vt 0.676947 0.744914
vt 0.271136 0.836531
vt 0.671188 0.882201
vt 0.658870 0.764150
vt 0.743109 0.744914
vt 0.568317 0.432447
vt 0.811227 0.804734
vt 0.852174 0.305995
vt 0.918099 0.201335
vt 0.500337 1.000448
vt 0.658870 0.649044
vt 0.578090 0.693209
vt 0.038260 0.820838
vt 0.109965 0.958096
vt 0.026139 0.938907
vt 0.918099 0.130116
vt 1.000000 0.134325
vt 1.000000 0.226481
vt 0.378500 0.607808
vt 0.181719 0.642166
vt 0.079929 0.644913
vt 0.879609 0.117771
vt 0.326045 0.450563
vt 0.706265 0.582323
vt 0.465038 0.370396
vt 0.435624 0.421379
vt 0.373927 0.390550
vt 0.026139 0.654572
vt 0.026139 0.764208
vt 0.236804 0.027209
vt 0.897693 0.659550
vt 0.975874 0.764547
vt 0.286811 0.839194
vt 0.183158 0.782738
vt 0.321698 0.009656
vt 0.159928 0.000151
vt 0.181719 0.929100
vt 0.182854 0.864858
vt 0.677690 0.384483
vt 0.787107 0.389720
vt 0.658870 0.878493
vt 0.574546 0.859238
vt 0.586947 0.741262
vt 0.968469 0.429596
vt 0.892123 0.537687
vt 0.554605 0.693209
vt 0.554605 0.861918
vt 0.498812 0.779031
vt 0.995100 0.382681
vt 0.416722 0.000000
vt 0.498812 0.041919
vt 0.816782 0.534429
vt 0.804391 0.416376
vt 0.378753 0.946210
vt 0.286811 0.939683
vt 0.894973 0.657623
vt 0.803883 0.657730
vt 0.629974 0.076375
vt 0.498812 0.076556
vt 0.026139 0.644913
vt 0.026139 0.735859
vt 0.629974 0.077095
vt 0.761120 0.077246
vt 0.852174 0.249687
vt 0.171046 0.942194
vt 0.109965 0.942454
vt 0.109965 0.853950
vt 0.171046 0.853690
vt 0.520354 0.000123
vt 0.608905 0.000000
vt 0.650943 0.000000
vt 0.739482 0.000102
vt 0.743109 0.987502
vt 0.365245 0.800951
vt 0.653550 0.982431
vt 0.653550 0.935261
vt 0.726069 0.283031
vt 0.663941 0.282959
vt 0.953676 0.939901
vt 0.953676 0.997140
vt 0.595844 0.282597
vt 0.533709 0.282683
vt 0.864977 0.991718
vt 0.864977 0.944566
vt 0.588128 0.963618
vt 0.588128 0.954522
vt 0.701167 0.384479
vt 0.688072 0.384464
vt 0.803883 0.971752
vt 0.803883 0.962660
vt 0.571598 0.384465
vt 0.558501 0.384483
vn 0.017655 0.440019 0.897815
vn -0.187981 0.359202 0.914132
vn 0.127641 -0.372655 0.919150
vn 0.353615 -0.240594 0.903920
vn -0.353326 0.863071 0.360927
vn -0.436428 0.894420 -0.097688
vn -0.431436 0.900969 0.046021
vn -0.412464 0.836603 0.360512
vn 0.356791 -0.877652 0.320041
vn 0.385363 -0.922581 0.018441
vn 0.672356 -0.740037 0.016814
vn 0.501441 -0.801507 0.325796
vn 0.232920 -0.239370 -0.942576
vn -0.281351 0.046812 -0.958462
vn -0.320270 0.155953 -0.934401
vn -0.065629 -0.385872 -0.920215
vn 0.743742 -0.580969 0.330639
vn 0.353731 -0.894421 -0.273652
vn 0.479554 -0.834660 -0.270870
vn 0.739244 -0.586271 0.331367
vn -0.428339 0.866137 -0.257550
vn -0.000544 0.942334 0.334672
vn -0.850085 0.443552 0.283931
vn -0.841480 0.422373 -0.336916
vn 0.571767 0.551872 0.607058
vn 0.769340 0.180040 0.612945
vn 0.754639 0.163044 0.635561
vn 0.668569 0.386481 0.635333
vn 0.399102 -0.763203 0.508171
vn 0.044981 -0.929915 0.365013
vn 0.052229 -0.966047 0.253032
vn 0.434833 -0.839443 0.325968
vn 0.497362 -0.863324 0.085455
vn 0.058036 -0.996854 0.053978
vn 0.060842 -0.997350 -0.039899
vn 0.532147 -0.846413 -0.020106
vn 0.729980 0.157929 0.664972
vn 0.738839 -0.201615 0.643015
vn 0.869979 -0.234782 0.433605
vn 0.875102 0.190955 0.444672
vn 0.142551 0.505090 0.851213
vn 0.485195 0.467415 0.738992
vn 0.619717 0.635000 0.461223
vn 0.267921 0.786430 0.556547
vn 0.967453 0.201573 0.152983
vn 0.961209 -0.261201 0.088602
vn 0.971021 -0.237901 -0.022842
vn 0.980965 0.190001 0.040091
vn 0.923068 0.373820 -0.090578
vn 0.918989 0.376702 0.116426
vn 0.971606 0.203886 0.120050
vn 0.973477 0.208711 -0.093713
vn 0.291593 0.048774 -0.955298
vn 0.288901 -0.140005 -0.947067
vn 0.102453 -0.146241 -0.983929
vn 0.107395 0.059036 -0.992462
vn 0.501649 -0.403114 -0.765407
vn 0.268068 -0.927162 -0.261745
vn 0.204279 -0.631317 -0.748137
vn 0.437994 -0.346267 -0.829615
vn 0.099177 -0.263581 -0.959525
vn -0.151744 0.238768 -0.959148
vn -0.019241 0.291057 -0.956512
vn 0.233772 -0.207145 -0.949969
vn 0.540342 -0.758296 0.364717
vn 0.450849 -0.820055 -0.352484
vn 0.525803 -0.777034 -0.346049
vn 0.493671 -0.792041 0.359111
vn 0.030382 0.708669 -0.704887
vn -0.439569 0.538021 -0.719244
vn -0.434468 0.492447 -0.754144
vn 0.052444 0.714192 -0.697982
vn 0.322450 -0.140016 0.936174
vn 0.322446 -0.140008 0.936176
vn 0.129361 -0.235196 0.963301
vn 0.031120 -0.046206 0.998447
vn 0.683007 0.367160 -0.631423
vn 0.222235 0.025893 -0.974649
vn 0.531218 0.067828 -0.844515
vn 0.717691 0.222381 -0.659899
vn -0.229524 0.925935 -0.299939
vn 0.272222 0.885846 -0.375728
vn 0.170081 0.466592 -0.867966
vn -0.092607 0.489189 -0.867247
vn 0.267234 0.931887 0.245303
vn 0.711118 0.660953 0.239692
vn 0.713987 0.693111 0.099093
vn 0.204199 0.972128 0.115199
vn 0.470889 -0.118283 -0.874227
vn 0.295961 0.362374 -0.883794
vn 0.812755 0.375700 -0.445285
vn 0.877516 0.122269 -0.463698
vn 0.569195 -0.744214 0.349517
vn 0.634371 -0.699526 -0.328993
vn 0.960981 -0.211216 -0.178614
vn 0.924106 -0.255006 0.284605
vn 0.619458 0.756986 -0.207953
vn 0.814772 0.488406 0.312420
vn 0.779674 0.607563 0.151578
vn 0.757003 0.636907 -0.145932
vn 0.691261 0.383758 0.612281
vn 0.263311 -0.194452 0.944910
vn 0.810671 0.073636 0.580853
vn 0.738602 0.381171 0.556035
vn 0.527858 -0.823499 -0.207885
vn 0.070393 -0.972755 -0.220890
vn 0.091475 -0.585131 -0.805763
vn 0.450958 -0.494058 -0.743333
vn 0.975882 0.186069 -0.114162
vn 0.965605 -0.217913 -0.141850
vn 0.710776 -0.172812 -0.681860
vn 0.713974 0.098100 -0.693266
vn 0.159194 0.925216 -0.344431
vn 0.621652 0.746811 -0.236269
vn 0.378145 0.339838 -0.861113
vn 0.129403 0.442058 -0.887603
vn 0.198353 0.374564 -0.905736
vn -0.351288 -0.075439 -0.933223
vn -0.305760 -0.149111 -0.940360
vn 0.194557 0.379246 -0.904610
vn 0.946501 0.075765 0.313682
vn 0.629635 0.727854 -0.271639
vn 0.678688 0.687870 -0.257328
vn 0.908332 0.271997 0.317728
vn -0.103643 -0.606528 0.788278
vn 0.476052 -0.480242 0.736711
vn 0.426385 -0.461261 0.778096
vn -0.049781 -0.683229 0.728505
vn -0.948401 0.083387 -0.305913
vn -0.845751 -0.460684 0.269212
vn -0.751242 -0.606234 0.260990
vn -0.932408 -0.155217 -0.326379
vn -0.881053 0.136365 -0.452935
vn -0.876765 0.157290 0.454469
vn -0.083934 0.930041 0.357740
vn -0.204109 0.748574 -0.630854
vn 0.743391 0.599467 0.296662
vn 0.700287 0.670391 -0.245305
vn 0.592059 0.766748 -0.248120
vn 0.559412 0.782291 0.274006
vn -0.193219 -0.380891 0.904206
vn 0.310329 0.058988 0.948797
vn 0.086027 0.449012 0.889375
vn -0.411605 -0.067657 0.908847
vn -0.750915 -0.589724 -0.297241
vn -0.678610 -0.689689 0.252620
vn -0.782825 -0.568377 0.253246
vn -0.746876 -0.594984 -0.296934
vn -0.327743 0.330301 0.885148
vn -0.180512 -0.458344 0.870251
vn 0.079601 -0.381901 0.920769
vn -0.106564 0.419242 0.901598
vn -0.337196 0.898651 0.280582
vn -0.230379 0.932887 0.276852
vn -0.341570 0.937884 0.060861
vn -0.612324 0.790598 0.003741
vn 0.218795 -0.924110 0.313288
vn 0.114935 -0.946190 0.302513
vn 0.181164 -0.977094 -0.111656
vn 0.235473 -0.971869 0.004851
vn 0.335149 -0.125834 -0.933724
vn 0.301296 -0.293744 -0.907158
vn 0.239741 0.296134 -0.924569
vn -0.092388 0.293829 -0.951383
vn -0.072370 -0.953741 0.291790
vn -0.119386 -0.941126 0.316274
vn 0.368346 -0.883047 -0.290772
vn 0.296960 -0.928709 -0.222069
vn 0.071639 0.943285 -0.324163
vn 0.945147 0.324260 -0.039412
vn 0.943560 0.330951 0.012876
vn -0.528670 0.815573 0.235263
vn -0.826229 0.062913 0.559810
vn -0.634806 0.184713 0.750268
vn -0.756901 -0.325870 0.566489
vn -0.741984 -0.357901 0.566892
vn -0.471621 -0.796685 0.377978
vn -0.482786 -0.822475 0.300753
vn -0.088348 -0.965014 0.246866
vn -0.089281 -0.952766 0.290286
vn -0.515544 -0.855881 0.041025
vn -0.508208 -0.856110 -0.093814
vn -0.071221 -0.996435 -0.045211
vn -0.075797 -0.996019 0.046925
vn -0.825819 0.181742 0.533848
vn -0.905275 0.206809 0.371090
vn -0.907952 -0.221716 0.355619
vn -0.804831 -0.192964 0.561259
vn -0.233338 0.658537 0.715460
vn -0.246735 0.764675 0.595310
vn -0.672901 0.571231 0.469999
vn -0.626420 0.604915 0.491605
vn -0.974070 0.215841 0.067820
vn -0.975697 0.217063 -0.029997
vn -0.968677 -0.223647 -0.107925
vn -0.974940 -0.220461 0.029805
vn -0.981667 -0.147183 -0.121108
vn -0.940026 -0.319955 -0.118238
vn -0.946722 -0.315698 0.063663
vn -0.989328 -0.135706 0.053039
vn -0.206085 0.052431 -0.977128
vn -0.014015 0.055982 -0.998333
vn -0.020597 -0.147311 -0.988876
vn -0.206890 -0.136361 -0.968815
vn -0.288101 -0.885751 -0.363927
vn -0.167574 -0.576468 -0.799752
vn 0.098087 -0.576134 -0.811448
vn 0.124875 -0.932966 -0.337610
vn 0.131788 -0.306614 -0.942666
vn 0.021568 -0.318971 -0.947519
vn -0.096815 0.245923 -0.964442
vn 0.082619 0.262820 -0.961301
vn 0.089467 -0.922576 0.375298
vn 0.115203 -0.919915 0.374813
vn 0.104909 -0.932952 -0.344376
vn 0.227689 -0.912011 -0.341165
vn -0.180168 0.660683 -0.728723
vn -0.226397 0.702744 -0.674460
vn 0.444510 0.465398 -0.765386
vn 0.302489 0.594659 -0.744903
vn -0.308068 0.040315 0.950510
vn -0.019722 -0.232152 0.972480
vn -0.016568 -0.244588 0.969486
vn -0.227186 -0.284299 0.931429
vn -0.237486 -0.007248 -0.971364
vn -0.623115 -0.011697 -0.782043
vn -0.633671 -0.329100 -0.700110
vn -0.642671 -0.333331 -0.689829
vn -0.303149 0.933957 -0.189277
vn -0.235582 0.778125 -0.582257
vn -0.528156 0.546550 -0.649873
vn -0.511712 0.531225 -0.675241
vn -0.309064 0.918606 0.246255
vn -0.264595 0.963686 0.036052
vn -0.709677 0.703573 0.036646
vn -0.706554 0.680380 0.194587
vn -0.249243 -0.390978 -0.886010
vn -0.855504 -0.341104 -0.389565
vn -0.890554 -0.104009 -0.442827
vn -0.375176 0.156794 -0.913597
vn -0.191206 -0.933132 0.304474
vn -0.822882 -0.561048 0.089948
vn -0.779464 -0.600875 -0.177158
vn -0.165004 -0.936552 -0.309262
vn -0.883019 0.391982 -0.258124
vn -0.979156 0.116824 -0.166151
vn -0.981743 0.148873 0.118395
vn -0.925974 0.348914 0.144329
vn -0.262958 -0.059724 0.962957
vn -0.902140 -0.035394 0.429989
vn -0.823929 -0.324360 0.464685
vn -0.214976 -0.302241 0.928674
vn -0.518154 -0.817670 -0.250864
vn -0.276907 -0.443234 -0.852565
vn -0.038769 -0.570451 -0.820416
vn -0.065044 -0.971760 -0.226830
vn -0.959304 0.200289 -0.199047
vn -0.649015 0.108117 -0.753054
vn -0.650804 -0.162806 -0.741585
vn -0.952043 -0.204608 -0.227485
vn -0.173386 0.940438 -0.292426
vn -0.044694 0.443338 -0.895240
vn -0.384506 0.380262 -0.841163
vn -0.587555 0.755698 -0.289309
vn -0.195716 0.411280 -0.890249
vn -0.127635 0.345879 -0.929557
vn 0.368515 -0.187253 -0.910567
vn 0.413385 -0.115066 -0.903257
vn -0.969481 0.047151 0.240591
vn -0.939395 0.259426 0.224133
vn -0.788511 0.547049 -0.281047
vn -0.831841 0.471609 -0.292618
vn 0.248660 -0.626200 0.738947
vn 0.217881 -0.728257 0.649746
vn -0.330442 -0.494051 0.804190
vn -0.329945 -0.496071 0.803150
vn 0.969994 0.007424 -0.243016
vn 0.938317 -0.263678 -0.223684
vn 0.681693 -0.668092 0.298243
vn 0.784194 -0.553819 0.279866
vn 0.911618 0.112248 -0.395416
vn 0.073836 0.906051 -0.416677
vn 0.243358 0.783084 0.572325
vn 0.907343 0.078814 0.412938
vn -0.778614 0.586654 0.222705
vn -0.568976 0.796426 0.204870
vn -0.565595 0.761196 -0.317307
vn -0.692202 0.643340 -0.327064
vn 0.130447 -0.342370 0.930466
vn 0.347052 -0.036017 0.937154
vn -0.142722 0.483305 0.863740
vn -0.398202 0.140136 0.906530
vn 0.738644 -0.644258 -0.198335
vn 0.759487 -0.611564 -0.221739
vn 0.757571 -0.564231 0.328221
vn 0.622466 -0.713021 0.322703
vn 0.432737 -0.000000 0.901520
vn -0.432737 -0.000000 0.901520
vn -0.427505 -0.155020 0.890622
vn 0.427506 -0.155020 0.890622
vn 0.974240 0.000000 -0.225515
vn 0.973637 0.035172 -0.225375
vn 0.973637 0.035172 0.225375
vn 0.974240 0.000000 0.225515
vn -0.412113 0.305033 0.858555
vn 0.412113 0.305033 0.858556
vn 0.352766 0.579188 0.734913
vn -0.352765 0.579185 0.734916
vn -0.973637 0.035171 -0.225375
vn -0.974240 -0.000000 -0.225515
vn -0.974240 -0.000000 0.225515
vn -0.973637 0.035172 0.225375
vn 0.432262 0.046845 0.900531
vn -0.432262 0.046845 0.900531
vn -0.432262 0.046845 -0.900530
vn 0.432263 0.046845 -0.900530
vn 0.432737 0.000000 -0.901520
vn -0.432737 0.000000 -0.901520
vn 0.395302 -0.406855 0.823532
vn -0.395303 -0.406856 0.823532
vn -0.219423 -0.861911 0.457124
vn 0.334040 -0.788993 0.515662
vn 0.974240 -0.000000 -0.225514
vn 0.967554 -0.116951 0.223967
vn 0.967554 -0.116951 -0.223967
vn 0.427505 -0.155019 -0.890622
vn -0.427507 -0.155020 -0.890621
vn -0.967554 -0.116950 -0.223967
vn -0.967555 -0.116949 0.223967
vn -0.163358 -0.980023 -0.113441
vn 0.163357 -0.980023 -0.113441
vn 0.163357 -0.980023 0.113441
vn -0.163358 -0.980023 0.113442
vn 0.923994 -0.317000 -0.213884
vn 0.923994 -0.316999 0.213884
vn 0.676893 -0.719212 0.156685
vn 0.676893 -0.719212 -0.156686
vn -0.395303 -0.406855 -0.823532
vn 0.395303 -0.406855 -0.823532
vn 0.219423 -0.861911 -0.457125
vn -0.334041 -0.788993 -0.515662
vn -0.923994 -0.316999 0.213884
vn -0.923994 -0.316999 -0.213884
vn -0.676892 -0.719213 -0.156685
vn -0.676892 -0.719213 0.156685
vn -0.412206 0.304363 0.858749
vn 0.412207 0.304365 0.858748
vn 0.428944 0.132090 0.893621
vn -0.428944 0.132089 0.893621
vn -0.947259 0.233710 -0.219270
vn -0.947259 0.233711 0.219269
vn -0.859676 0.470486 0.198996
vn -0.859676 0.470486 -0.198996
vn 0.412114 0.305033 -0.858555
vn -0.412114 0.305033 -0.858555
vn -0.352765 0.579187 -0.734915
vn 0.352766 0.579186 -0.734915
vn 0.947259 0.233710 0.219269
vn 0.947259 0.233711 -0.219269
vn 0.859676 0.470486 -0.198996
vn 0.859676 0.470486 0.198996
vn -0.430947 -0.090910 0.897786
vn 0.430945 -0.090911 0.897787
vn 0.432353 -0.042174 0.900718
vn -0.432351 -0.042173 0.900719
vn -0.947385 0.233175 -0.219297
vn -0.947385 0.233175 0.219298
vn -0.969405 0.099506 0.224395
vn -0.969404 0.099506 -0.224396
vn 0.412207 0.304363 -0.858748
vn -0.412207 0.304363 -0.858748
vn -0.428945 0.132089 -0.893621
vn 0.428945 0.132090 -0.893621
vn 0.947385 0.233175 0.219298
vn 0.947385 0.233175 -0.219299
vn 0.969404 0.099507 -0.224396
vn 0.969404 0.099507 0.224396
vn -0.394683 0.410060 0.822239
vn 0.394681 0.410060 0.822239
vn 0.370785 0.515587 0.772456
vn -0.370787 0.515586 0.772456
vn -0.971962 -0.068347 -0.224987
vn -0.971962 -0.068347 0.224987
vn -0.973752 -0.031661 0.225401
vn -0.973751 -0.031661 -0.225402
vn 0.430947 -0.090911 -0.897786
vn -0.430945 -0.090911 -0.897787
vn -0.432354 -0.042174 -0.900717
vn 0.432351 -0.042174 -0.900719
vn 0.971962 -0.068347 0.224987
vn 0.971961 -0.068347 -0.224988
vn 0.973751 -0.031661 -0.225402
vn 0.973751 -0.031661 0.225401
vn -0.410320 0.317679 0.854820
vn 0.410322 0.317681 0.854818
vn 0.410160 0.318765 0.854493
vn -0.410160 0.318765 0.854493
vn -0.923113 0.319693 -0.213680
vn -0.923113 0.319693 0.213680
vn -0.887909 0.411553 0.205530
vn -0.887909 0.411552 -0.205530
vn 0.394682 0.410060 -0.822239
vn -0.394681 0.410059 -0.822240
vn -0.370785 0.515586 -0.772457
vn 0.370786 0.515587 -0.772456
vn 0.923113 0.319694 0.213679
vn 0.923112 0.319694 -0.213681
vn 0.887908 0.411553 -0.205531
vn 0.887908 0.411554 0.205529
vn 0.628736 0.609969 -0.482316
vn -0.679390 0.596661 -0.427113
vn -0.628737 0.609969 0.482316
vn 0.679387 0.596668 0.427107
vn -0.944834 0.243836 -0.218707
vn -0.944834 0.243837 0.218708
vn -0.944620 0.244709 0.218658
vn -0.944619 0.244710 -0.218659
vn 0.410322 0.317680 -0.854819
vn -0.410322 0.317680 -0.854819
vn -0.410164 0.318766 -0.854490
vn 0.410166 0.318766 -0.854489
vn 0.944833 0.243838 0.218707
vn 0.944834 0.243837 -0.218708
vn 0.944620 0.244710 -0.218656
vn 0.944619 0.244710 0.218660
vn -0.007571 0.443244 0.896369
vn -0.181972 0.369793 0.911120
vn 0.129111 -0.369807 0.920094
vn 0.365994 -0.215292 0.905372
vn -0.354905 0.862723 0.360210
vn -0.176862 0.982832 0.052553
vn -0.416635 0.907293 0.056872
vn -0.383845 0.857899 0.341574
vn 0.357502 -0.877146 0.320638
vn 0.361309 -0.931751 0.036011
vn 0.474954 -0.873773 -0.104594
vn 0.508737 -0.795000 0.330398
vn -0.100391 -0.280767 -0.954511
vn -0.017586 0.325450 -0.945396
vn -0.300842 0.159723 -0.940204
vn -0.148010 -0.386232 -0.910450
vn 0.710931 -0.626123 0.320230
vn 0.761676 -0.641141 -0.093748
vn 0.315350 -0.889785 -0.329905
vn 0.765817 -0.545421 0.340646
vn 0.021841 0.997666 -0.064703
vn -0.009049 0.942764 0.333337
vn -0.628969 0.650871 0.425165
vn -0.719380 0.646387 -0.254314
vn 0.522847 0.572667 0.631414
vn 0.757888 0.122554 0.640770
vn 0.758927 0.184990 0.624346
vn 0.147986 0.448096 0.881652
vn 0.545703 -0.775114 0.318444
vn 0.112842 -0.966241 0.231615
vn 0.047908 -0.968047 0.246149
vn 0.442483 -0.829275 0.341339
vn 0.468129 -0.881886 0.055966
vn 0.056779 -0.996993 0.052741
vn 0.060281 -0.997402 -0.039443
vn 0.501856 -0.863533 -0.049508
vn 0.827265 0.265938 0.494883
vn 0.904380 -0.116421 0.410541
vn 0.870680 -0.237470 0.430725
vn 0.872244 0.193746 0.449059
vn 0.025747 0.823101 0.567311
vn 0.498694 0.809349 0.310257
vn 0.637473 0.561601 0.527477
vn 0.204856 0.761356 0.615119
vn 0.961766 0.215246 0.169339
vn 0.965248 -0.234719 0.114909
vn 0.976178 -0.216970 0.000806
vn 0.977655 0.202708 0.055685
vn 0.911032 0.394843 -0.118822
vn 0.904507 0.399986 0.147915
vn 0.972395 0.161859 0.168079
vn 0.975635 0.171071 -0.137370
vn 0.341160 0.081195 -0.936492
vn 0.334269 -0.170410 -0.926944
vn 0.104935 -0.148233 -0.983370
vn 0.102188 0.055128 -0.993236
vn 0.539072 -0.720806 -0.435706
vn 0.340715 -0.838700 -0.424848
vn 0.132392 -0.926116 -0.353243
vn 0.543273 -0.729395 -0.415737
vn 0.125974 -0.267532 -0.955279
vn -0.163651 0.239866 -0.956913
vn -0.035636 0.294059 -0.955123
vn 0.241237 -0.208611 -0.947780
vn 0.542141 -0.756277 0.366236
vn 0.488063 -0.809652 -0.325973
vn 0.525084 -0.777238 -0.346682
vn 0.482033 -0.795102 0.368046
vn -0.264550 0.708032 -0.654755
vn -0.338093 0.633902 -0.695602
vn -0.427749 0.500179 -0.752895
vn 0.025240 0.715130 -0.698536
vn -0.218092 -0.065678 0.973716
vn 0.333262 -0.141860 0.932101
vn 0.142865 -0.238033 0.960692
vn 0.366272 -0.118591 0.922920
vn -0.012110 0.224017 -0.974510
vn 0.526840 -0.014179 -0.849846
vn 0.963305 -0.121495 -0.239338
vn 0.827871 0.454148 -0.329210
vn -0.339732 0.786717 -0.515420
vn -0.259284 0.490295 -0.832096
vn 0.469485 0.748420 -0.468455
vn 0.052670 0.984056 -0.169880
vn 0.299759 0.914132 0.272960
vn 0.696708 0.670067 0.256139
vn 0.670983 0.726281 0.149320
vn 0.274530 0.959724 0.059699
vn 0.463661 -0.117801 -0.878147
vn 0.264452 0.344312 -0.900841
vn 0.847918 0.415885 -0.328746
vn 0.922158 0.109238 -0.371068
vn 0.566148 -0.745594 0.351520
vn 0.637050 -0.696504 -0.330226
vn 0.976467 -0.062010 -0.206561
vn 0.972961 -0.149602 0.175973
vn 0.503925 0.813114 -0.291384
vn 0.613511 0.756841 0.225381
vn 0.720403 0.654072 0.230672
vn 0.813178 0.556497 -0.170449
vn 0.202399 0.001268 0.979302
vn 0.271769 -0.194953 0.942409
vn 0.888333 0.070137 0.453811
vn 0.807858 0.429276 0.403840
vn 0.526078 -0.825344 -0.205060
vn 0.067907 -0.973637 -0.217758
vn 0.102080 -0.571486 -0.814238
vn 0.343960 -0.447798 -0.825330
vn 0.975847 0.182600 -0.119913
vn 0.965200 -0.218697 -0.143388
vn 0.604190 -0.207716 -0.769291
vn 0.610759 0.125983 -0.781730
vn 0.212100 0.937605 -0.275517
vn 0.680151 0.719651 -0.139633
vn 0.462215 0.374040 -0.804022
vn 0.119704 0.432441 -0.893681
vn 0.227263 0.427027 -0.875214
vn -0.325032 -0.013864 -0.945601
vn -0.503212 -0.202116 -0.840194
vn 0.228566 0.494438 -0.838623
vn 0.931009 0.280459 0.233592
vn 0.661545 0.705331 -0.254689
vn 0.696124 0.674924 -0.244722
vn 0.908929 0.264885 0.322001
vn 0.126553 -0.638878 0.758828
vn 0.435067 -0.532094 0.726356
vn 0.423460 -0.464928 0.777511
vn -0.076373 -0.681450 0.727868
vn -0.948843 0.081606 -0.305019
vn -0.901889 -0.374045 0.216071
vn -0.762581 -0.595959 0.251602
vn -0.932773 -0.168784 -0.318506
vn -0.847011 -0.008360 -0.531509
vn -0.933219 0.072531 0.351911
vn -0.276573 0.763473 0.583623
vn -0.037799 0.921781 -0.385864
vn 0.743036 0.601103 0.294232
vn 0.695280 0.672692 -0.253124
vn 0.479062 0.767351 -0.426229
vn 0.421776 0.791042 0.443122
vn -0.221401 -0.437733 0.871419
vn 0.332598 0.106273 0.937062
vn 0.121659 0.541994 0.831529
vn -0.605609 -0.133367 0.784507
vn -0.750998 -0.589464 -0.297547
vn -0.687259 -0.684941 0.241933
vn -0.811412 -0.439611 0.385166
vn -0.761558 -0.477247 -0.438479
vn -0.304036 0.357823 0.882907
vn -0.132269 -0.400686 0.906618
vn 0.069793 -0.397468 0.914958
vn -0.122526 0.397324 0.909462
vn -0.222703 0.948540 0.225112
vn -0.330802 0.879843 0.341241
vn -0.405937 0.913772 0.015366
vn -0.244195 0.952352 -0.182741
vn 0.213344 -0.927011 0.308439
vn 0.091005 -0.945248 0.313408
vn -0.003461 -0.999981 -0.005080
vn 0.214268 -0.976562 0.020405
vn 0.023485 -0.378771 -0.925192
vn 0.368218 -0.236824 -0.899072
vn 0.561431 0.406801 -0.720630
vn 0.198262 0.282397 -0.938586
vn -0.173814 -0.935737 0.306897
vn -0.223949 -0.916465 0.331569
vn 0.171502 -0.958556 -0.227502
vn -0.028088 -0.993259 -0.112462
vn -0.543533 0.822764 -0.166226
vn 0.659022 0.691969 -0.294736
vn 0.143527 0.915156 0.376684
vn -0.491396 0.840827 0.227022
vn -0.823114 0.069960 0.563551
vn -0.827917 -0.031767 0.559951
vn -0.713481 -0.362334 0.599716
vn -0.657583 -0.424955 0.622092
vn -0.455053 -0.834706 0.310148
vn -0.473970 -0.832765 0.286104
vn -0.083471 -0.967082 0.240387
vn -0.032627 -0.987942 0.151347
vn -0.484117 -0.874888 0.014197
vn -0.540701 -0.838529 -0.067165
vn -0.071738 -0.996375 -0.045714
vn -0.077156 -0.995861 0.048048
vn -0.895261 0.143398 0.421835
vn -0.907778 0.204058 0.366469
vn -0.908438 -0.224395 0.352686
vn -0.839888 -0.246728 0.483439
vn -0.156278 0.564773 0.810314
vn -0.304055 0.790634 0.531458
vn -0.648337 0.644319 0.405601
vn -0.506131 0.570223 0.647053
vn -0.969637 0.229440 0.084621
vn -0.977815 0.204396 -0.045828
vn -0.975577 -0.202627 -0.084806
vn -0.969003 -0.247016 0.003935
vn -0.981593 -0.123501 -0.145681
vn -0.921757 -0.356145 -0.153380
vn -0.939810 -0.331669 0.082177
vn -0.991134 -0.107155 0.078560
vn -0.256626 0.085588 -0.962714
vn -0.019209 0.059966 -0.998016
vn -0.018048 -0.145355 -0.989215
vn -0.254294 -0.166085 -0.952759
vn 0.164473 -0.613846 -0.772102
vn -0.378291 -0.757553 -0.531987
vn 0.001343 -0.825878 -0.563847
vn 0.201418 -0.857598 -0.473241
vn 0.146231 -0.290930 -0.945503
vn 0.011237 -0.330093 -0.943882
vn -0.100641 0.247419 -0.963667
vn 0.032665 0.283724 -0.958349
vn 0.093423 -0.923084 0.373078
vn 0.093060 -0.930886 0.353259
vn 0.100672 -0.932201 -0.347658
vn 0.172384 -0.937680 -0.301728
vn -0.234243 0.677515 -0.697211
vn -0.097295 0.633248 -0.767809
vn 0.301543 0.597673 -0.742872
vn -0.059972 0.750802 -0.657799
vn 0.233531 -0.204752 0.950547
vn -0.358775 -0.076508 0.930284
vn -0.022095 -0.250934 0.967752
vn -0.201794 -0.297044 0.933297
vn -0.582791 0.078245 -0.808846
vn -0.947434 0.160059 -0.277038
vn -0.952585 -0.290030 -0.092003
vn 0.036124 -0.280661 -0.959127
vn -0.369409 0.862180 -0.346673
vn -0.189513 0.980919 0.043399
vn -0.597678 0.768280 -0.229189
vn -0.519001 0.798742 -0.304384
vn -0.273986 0.935864 0.221563
vn -0.199219 0.975092 0.097503
vn -0.670754 0.736142 0.090466
vn -0.719601 0.671467 0.176935
vn -0.291614 -0.376017 -0.879529
vn -0.786812 -0.412105 -0.459452
vn -0.941048 -0.081432 -0.328325
vn -0.427325 0.159047 -0.889998
vn -0.174913 -0.932475 0.316064
vn -0.769414 -0.616180 0.168299
vn -0.814487 -0.547243 -0.192708
vn -0.221939 -0.916865 -0.331817
vn -0.856437 0.425784 -0.291932
vn -0.981584 0.051929 -0.183839
vn -0.992495 0.100679 0.069402
vn -0.958534 0.185975 0.215932
vn -0.818720 0.035325 0.573106
vn -0.957896 -0.033225 0.285185
vn -0.874177 -0.368260 0.316542
vn -0.187170 -0.283304 0.940588
vn -0.519652 -0.815801 -0.253831
vn -0.391344 -0.487868 -0.780279
vn -0.029149 -0.584244 -0.811054
vn -0.062856 -0.972676 -0.223494
vn -0.958817 0.196818 -0.204775
vn -0.538053 0.134425 -0.832123
vn -0.537496 -0.199325 -0.819370
vn -0.952569 -0.203816 -0.225988
vn -0.114837 0.927230 -0.356452
vn -0.034643 0.433576 -0.900451
vn -0.296274 0.344794 -0.890695
vn -0.654683 0.729461 -0.198184
vn -0.143091 0.326456 -0.934319
vn -0.164944 0.463763 -0.870470
vn 0.558015 -0.237895 -0.795000
vn 0.391437 -0.062081 -0.918108
vn -0.973722 0.114355 0.196947
vn -0.940505 0.242044 0.238464
vn -0.755656 0.576090 -0.311616
vn -0.822329 0.482780 -0.301161
vn 0.274088 -0.634537 0.722660
vn 0.087489 -0.652058 0.753104
vn -0.445144 -0.383602 0.809133
vn -0.177188 -0.590857 0.787078
vn 0.994676 -0.020431 -0.101002
vn 0.941133 -0.239496 -0.238558
vn 0.731836 -0.627740 0.265251
vn 0.959900 -0.246073 0.134315
vn 0.881611 -0.035111 -0.470669
vn 0.254907 0.722350 -0.642832
vn 0.068519 0.942364 0.327497
vn 0.844803 0.167856 0.508067
vn -0.775612 0.596540 0.206316
vn -0.443284 0.810583 0.382695
vn -0.440549 0.754132 -0.487033
vn -0.708607 0.637048 -0.303391
vn 0.183391 -0.442741 0.877695
vn 0.548508 -0.107906 0.829153
vn -0.173313 0.574278 0.800104
vn -0.381434 0.106178 0.918278
vn 0.747430 -0.626490 -0.221042
vn 0.785128 -0.499437 -0.366247
vn 0.778285 -0.430742 0.456874
vn 0.651383 -0.700259 0.292125
vn -0.427506 -0.155020 0.890622
vn 0.427505 -0.155020 0.890622
vn 0.973637 0.035172 0.225376
vn -0.412113 0.305033 0.858556
vn 0.412114 0.305034 0.858555
vn 0.352764 0.579185 0.734917
vn -0.352766 0.579190 0.734912
vn -0.973637 0.035172 -0.225375
vn -0.974240 -0.000000 0.225514
vn -0.973637 0.035171 0.225375
vn -0.432262 0.046845 0.900530
vn -0.432261 0.046845 -0.900531
vn 0.432261 0.046845 -0.900531
vn -0.395302 -0.406855 0.823532
vn -0.334041 -0.788993 0.515662
vn 0.219424 -0.861911 0.457124
vn 0.974240 -0.000001 -0.225515
vn 0.427506 -0.155020 -0.890622
vn -0.427505 -0.155019 -0.890623
vn -0.974240 -0.000001 0.225515
vn -0.967555 -0.116949 -0.223967
vn -0.967554 -0.116950 0.223967
vn -0.219387 -0.963669 -0.152350
vn 0.219387 -0.963669 -0.152350
vn 0.219386 -0.963670 0.152350
vn -0.219387 -0.963670 0.152349
vn 0.923994 -0.316999 -0.213884
vn 0.923994 -0.317000 0.213884
vn 0.545367 -0.814634 0.197347
vn 0.545367 -0.814634 -0.197347
vn -0.395301 -0.406854 -0.823533
vn 0.395301 -0.406855 -0.823533
vn 0.334041 -0.788992 -0.515662
vn -0.219423 -0.861911 -0.457124
vn -0.545367 -0.814635 -0.197346
vn -0.545367 -0.814634 0.197347
vn -0.412207 0.304363 0.858748
vn 0.412205 0.304362 0.858749
vn 0.428945 0.132090 0.893621
vn -0.428945 0.132090 0.893621
vn -0.947259 0.233711 -0.219270
vn -0.859675 0.470487 0.198997
vn 0.412113 0.305033 -0.858555
vn -0.412113 0.305033 -0.858555
vn -0.352765 0.579186 -0.734915
vn 0.352765 0.579187 -0.734914
vn 0.947259 0.233711 0.219270
vn 0.859676 0.470487 -0.198996
vn 0.859677 0.470486 0.198995
vn -0.430945 -0.090910 0.897787
vn 0.430945 -0.090910 0.897787
vn 0.432352 -0.042174 0.900718
vn -0.432352 -0.042173 0.900718
vn -0.947384 0.233175 -0.219298
vn -0.969404 0.099506 0.224396
vn -0.969405 0.099506 -0.224395
vn 0.412206 0.304362 -0.858749
vn -0.412206 0.304362 -0.858749
vn -0.428946 0.132090 -0.893621
vn 0.428946 0.132090 -0.893621
vn 0.947384 0.233175 0.219299
vn 0.947385 0.233175 -0.219298
vn 0.969405 0.099507 0.224395
vn -0.394683 0.410061 0.822238
vn 0.394681 0.410060 0.822240
vn -0.370784 0.515586 0.772457
vn -0.971962 -0.068346 0.224986
vn -0.973751 -0.031661 0.225402
vn -0.973751 -0.031661 -0.225401
vn 0.430945 -0.090911 -0.897787
vn -0.430944 -0.090910 -0.897788
vn -0.432353 -0.042174 -0.900718
vn 0.432352 -0.042174 -0.900718
vn 0.971962 -0.068348 0.224987
vn 0.971962 -0.068347 -0.224987
vn 0.973751 -0.031662 -0.225402
vn 0.973752 -0.031662 0.225401
vn -0.410322 0.317679 0.854819
vn 0.410320 0.317680 0.854820
vn 0.543451 0.361190 0.757762
vn -0.543453 0.361192 0.757760
vn -0.923113 0.319692 0.213680
vn -0.887908 0.411554 0.205532
vn -0.887908 0.411553 -0.205531
vn 0.394684 0.410060 -0.822238
vn -0.394682 0.410059 -0.822239
vn -0.370785 0.515587 -0.772456
vn 0.923113 0.319693 -0.213680
vn 0.887908 0.411553 -0.205532
vn 0.887908 0.411554 0.205531
vn 0.679396 0.596667 -0.427094
vn -0.628739 0.609972 -0.482309
vn -0.679390 0.596671 0.427097
vn 0.628739 0.609971 0.482309
vn -0.944834 0.243837 -0.218708
vn -0.944834 0.243836 0.218708
vn -0.901972 0.298555 0.311946
vn -0.901972 0.298555 -0.311948
vn 0.410321 0.317679 -0.854820
vn -0.410321 0.317679 -0.854820
vn -0.543452 0.361189 -0.757762
vn 0.543449 0.361186 -0.757765
vn 0.944833 0.243837 0.218709
vn 0.944834 0.243837 -0.218707
vn 0.901973 0.298555 -0.311945
vn 0.901971 0.298554 0.311952
usemtl Material
s off
f 1/1/1 110/2/1 325/3/1
f 1/1/2 109/4/2 381/5/2
f 1/1/3 112/6/3 114/7/3
f 1/1/4 114/7/4 326/8/4
f 2/9/5 109/10/5 111/11/5
f 2/9/6 111/11/6 327/12/6
f 2/9/7 117/13/7 113/14/7
f 2/9/8 113/14/8 109/10/8
f 3/15/9 114/16/9 382/17/9
f 3/15/10 115/18/10 384/19/10
f 3/15/11 119/20/11 328/21/11
f 3/15/12 116/22/12 114/16/12
f 4/23/13 124/24/13 328/25/13
f 4/23/14 118/26/14 327/27/14
f 4/23/15 125/28/15 331/29/15
f 4/23/16 123/30/16 124/24/16
f 5/31/17 126/32/17 326/33/17
f 5/31/18 116/22/18 124/34/18
f 5/31/19 124/34/19 332/35/19
f 5/31/20 122/36/20 126/32/20
f 6/37/21 125/38/21 111/11/21
f 6/37/22 111/11/22 325/39/22
f 6/37/23 127/40/23 121/41/23
f 6/37/24 121/41/24 331/42/24
f 7/43/25 127/44/25 110/45/25
f 7/43/26 110/45/26 126/46/26
f 7/43/27 126/46/27 330/47/27
f 7/43/28 120/48/28 329/49/28
f 8/50/29 136/51/29 336/52/29
f 8/50/30 132/53/30 137/54/30
f 8/50/31 137/54/31 135/55/31
f 8/50/32 135/55/32 338/56/32
f 9/57/33 142/58/33 135/55/33
f 9/57/34 135/55/34 388/59/34
f 9/57/35 143/60/35 389/61/35
f 9/57/36 141/62/36 340/63/36
f 10/64/37 139/65/37 335/66/37
f 10/64/38 131/67/38 136/68/38
f 10/64/39 136/68/39 134/69/39
f 10/64/40 134/69/40 337/70/40
f 11/71/41 138/72/41 385/73/41
f 11/71/42 130/74/42 139/65/42
f 11/71/43 139/65/43 337/70/43
f 11/71/44 133/75/44 387/76/44
f 12/77/45 144/78/45 134/79/45
f 12/77/46 134/79/46 338/80/46
f 12/77/47 142/81/47 140/82/47
f 12/77/48 140/82/48 339/83/48
f 13/84/49 148/85/49 146/86/49
f 13/84/50 146/86/50 145/87/50
f 13/84/51 145/87/51 147/88/51
f 13/84/52 147/88/52 148/85/52
f 14/89/53 151/90/53 152/91/53
f 14/89/54 152/91/54 154/92/54
f 14/89/55 154/92/55 392/93/55
f 14/89/56 153/94/56 391/95/56
f 15/96/57 162/97/57 328/25/57
f 15/96/58 119/98/58 163/99/58
f 15/96/59 163/99/59 386/100/59
f 15/96/60 132/101/60 162/97/60
f 16/102/61 128/103/61 332/104/61
f 16/102/62 123/30/62 160/105/62
f 16/102/63 160/105/63 342/106/63
f 16/102/64 159/107/64 128/103/64
f 17/108/65 161/109/65 330/110/65
f 17/108/66 122/36/66 128/111/66
f 17/108/67 128/111/67 334/112/67
f 17/108/68 158/113/68 341/114/68
f 18/115/69 177/116/69 160/117/69
f 18/115/70 160/117/70 178/118/70
f 18/115/71 178/118/71 350/119/71
f 18/115/72 176/120/72 352/121/72
f 19/122/73 129/123/73 120/124/73
f 19/122/74 120/124/74 330/125/74
f 19/122/75 161/126/75 156/127/75
f 19/122/76 156/127/76 333/128/76
f 20/129/77 165/130/77 327/27/77
f 20/129/78 118/26/78 162/97/78
f 20/129/79 162/97/79 336/131/79
f 20/129/80 131/132/80 335/133/80
f 21/134/81 164/135/81 383/136/81
f 21/134/82 117/137/82 165/130/82
f 21/134/83 165/130/83 335/133/83
f 21/134/84 130/138/84 164/135/84
f 22/139/85 167/140/85 387/141/85
f 22/139/86 133/142/86 337/143/86
f 22/139/87 144/144/87 166/145/87
f 22/139/88 166/145/88 390/146/88
f 23/147/89 168/148/89 334/149/89
f 23/147/90 159/107/90 342/106/90
f 23/147/91 149/150/91 148/151/91
f 23/147/92 148/151/92 168/148/92
f 24/152/93 150/153/93 158/113/93
f 24/152/94 158/113/94 334/112/94
f 24/152/95 168/154/95 147/155/95
f 24/152/96 147/155/96 344/156/96
f 25/157/97 149/158/97 157/159/97
f 25/157/98 157/159/98 333/160/98
f 25/157/99 169/161/99 343/162/99
f 25/157/100 146/163/100 149/158/100
f 26/164/101 169/165/101 333/128/101
f 26/164/102 156/127/102 341/166/102
f 26/164/103 150/167/103 145/168/103
f 26/164/104 145/168/104 169/165/104
f 27/169/105 170/170/105 340/63/105
f 27/169/106 141/62/106 171/171/106
f 27/169/107 171/171/107 392/172/107
f 27/169/108 154/173/108 348/174/108
f 28/175/109 172/176/109 140/82/109
f 28/175/110 140/82/110 340/177/110
f 28/175/111 170/178/111 152/179/111
f 28/175/112 152/179/112 172/176/112
f 29/180/113 155/181/113 390/146/113
f 29/180/114 166/145/114 172/182/114
f 29/180/115 172/182/115 347/183/115
f 29/180/116 151/184/116 155/181/116
f 30/185/117 185/186/117 352/187/117
f 30/185/118 176/188/118 186/189/118
f 30/185/119 186/189/119 184/190/119
f 30/185/120 184/190/120 185/186/120
f 31/191/121 179/192/121 157/193/121
f 31/191/122 157/193/122 342/194/122
f 31/191/123 177/195/123 175/196/123
f 31/191/124 175/196/124 351/197/124
f 32/198/125 180/199/125 329/200/125
f 32/198/126 129/201/126 333/202/126
f 32/198/127 179/203/127 174/204/127
f 32/198/128 174/204/128 180/199/128
f 33/205/129 178/206/129 331/207/129
f 33/205/130 121/208/130 180/209/130
f 33/205/131 180/209/131 349/210/131
f 33/205/132 173/211/132 178/206/132
f 34/212/133 184/213/133 181/214/133
f 34/212/134 181/214/134 353/215/134
f 34/212/135 182/216/135 355/217/135
f 34/212/136 183/218/136 356/219/136
f 35/220/137 187/221/137 175/196/137
f 35/220/138 175/196/138 352/222/138
f 35/220/139 185/223/139 183/224/139
f 35/220/140 183/224/140 187/221/140
f 36/225/141 188/226/141 174/227/141
f 36/225/142 174/227/142 351/228/142
f 36/225/143 187/229/143 182/230/143
f 36/225/144 182/230/144 188/226/144
f 37/231/145 186/232/145 350/233/145
f 37/231/146 173/234/146 188/235/146
f 37/231/147 188/235/147 181/236/147
f 37/231/148 181/236/148 186/232/148
f 38/237/149 189/238/149 357/239/149
f 38/237/150 190/240/150 192/241/150
f 38/237/151 192/241/151 382/242/151
f 38/237/152 112/6/152 189/238/152
f 39/243/153 191/244/153 189/245/153
f 39/243/154 189/245/154 381/246/154
f 39/243/155 113/14/155 383/247/155
f 39/243/156 194/248/156 359/249/156
f 40/250/157 115/18/157 192/251/157
f 40/250/158 192/251/158 193/252/158
f 40/250/159 193/252/159 360/253/159
f 40/250/160 196/254/160 115/18/160
f 41/255/161 195/256/161 360/257/161
f 41/255/162 201/258/162 200/259/162
f 41/255/163 200/259/163 363/260/163
f 41/255/164 202/261/164 359/262/164
f 42/263/165 193/252/165 358/264/165
f 42/263/166 203/265/166 199/266/166
f 42/263/167 199/266/167 364/267/167
f 42/263/168 201/268/168 193/252/168
f 43/269/169 191/244/169 202/270/169
f 43/269/170 202/270/170 198/271/170
f 43/269/171 198/271/171 204/272/171
f 43/269/172 204/272/172 357/273/172
f 44/274/173 190/275/173 204/276/173
f 44/274/174 204/276/174 361/277/174
f 44/274/175 197/278/175 362/279/175
f 44/274/176 203/280/176 190/275/176
f 45/281/177 209/282/177 213/283/177
f 45/281/178 213/283/178 370/284/178
f 45/281/179 212/285/179 137/54/179
f 45/281/180 137/54/180 386/286/180
f 46/287/181 212/285/181 217/288/181
f 46/287/182 217/288/182 372/289/182
f 46/287/183 216/290/183 389/61/183
f 46/287/184 143/60/184 388/59/184
f 47/291/185 208/292/185 214/293/185
f 47/291/186 214/293/186 369/294/186
f 47/291/187 211/295/187 213/296/187
f 47/291/188 213/296/188 368/297/188
f 48/298/189 207/299/189 138/72/189
f 48/298/190 138/72/190 387/76/190
f 48/298/191 210/300/191 369/301/191
f 48/298/192 214/302/192 367/303/192
f 49/304/193 211/295/193 218/305/193
f 49/304/194 218/305/194 371/306/194
f 49/304/195 215/307/195 217/308/195
f 49/304/196 217/308/196 370/309/196
f 50/310/197 220/311/197 222/312/197
f 50/310/198 222/312/198 221/313/198
f 50/310/199 221/313/199 219/314/199
f 50/310/200 219/314/200 220/311/200
f 51/315/201 226/316/201 225/317/201
f 51/315/202 225/317/202 391/95/202
f 51/315/203 153/94/203 392/93/203
f 51/315/204 227/318/204 226/316/204
f 52/319/205 196/320/205 234/321/205
f 52/319/206 234/321/206 368/322/206
f 52/319/207 209/323/207 163/99/207
f 52/319/208 163/99/208 384/324/208
f 53/325/209 200/259/209 364/326/209
f 53/325/210 205/327/210 231/328/210
f 53/325/211 231/328/211 232/329/211
f 53/325/212 232/329/212 363/260/212
f 54/330/213 199/266/213 362/331/213
f 54/330/214 233/332/214 373/333/214
f 54/330/215 230/334/215 205/335/215
f 54/330/216 205/335/216 199/266/216
f 55/336/217 232/337/217 374/338/217
f 55/336/218 245/339/218 244/340/218
f 55/336/219 244/340/219 394/341/219
f 55/336/220 246/342/220 232/337/220
f 56/343/221 197/344/221 361/345/221
f 56/343/222 206/346/222 228/347/222
f 56/343/223 228/347/223 233/348/223
f 56/343/224 233/348/224 197/344/224
f 57/349/225 195/256/225 235/350/225
f 57/349/226 235/350/226 367/351/226
f 57/349/227 208/352/227 234/321/227
f 57/349/228 234/321/228 360/257/228
f 58/353/229 194/354/229 164/135/229
f 58/353/230 164/135/230 385/355/230
f 58/353/231 207/356/231 235/350/231
f 58/353/232 235/350/232 359/262/232
f 59/357/233 210/358/233 387/141/233
f 59/357/234 167/140/234 390/146/234
f 59/357/235 236/359/235 218/360/235
f 59/357/236 218/360/236 369/361/236
f 60/362/237 231/328/237 237/363/237
f 60/362/238 237/363/238 378/364/238
f 60/362/239 222/365/239 223/366/239
f 60/362/240 223/366/240 374/367/240
f 61/368/241 230/334/241 224/369/241
f 61/368/242 224/369/242 376/370/242
f 61/368/243 221/371/243 237/372/243
f 61/368/244 237/372/244 366/373/244
f 62/374/245 229/375/245 223/376/245
f 62/374/246 223/376/246 220/311/246
f 62/374/247 220/311/247 375/377/247
f 62/374/248 238/378/248 365/379/248
f 63/380/249 228/347/249 365/381/249
f 63/380/250 238/382/250 219/383/250
f 63/380/251 219/383/251 224/384/251
f 63/380/252 224/384/252 373/385/252
f 64/386/253 216/290/253 372/289/253
f 64/386/254 239/387/254 380/388/254
f 64/386/255 227/389/255 392/172/255
f 64/386/256 171/171/256 216/290/256
f 65/390/257 215/307/257 240/391/257
f 65/390/258 240/391/258 226/392/258
f 65/390/259 226/392/259 239/393/259
f 65/390/260 239/393/260 372/394/260
f 66/395/261 236/359/261 390/146/261
f 66/395/262 155/181/262 225/396/262
f 66/395/263 225/396/263 379/397/263
f 66/395/264 240/398/264 236/359/264
f 67/399/265 244/400/265 396/401/265
f 67/399/266 253/402/266 252/403/266
f 67/399/267 252/403/267 254/404/267
f 67/399/268 254/404/268 244/400/268
f 68/405/269 229/375/269 247/406/269
f 68/405/270 247/406/270 395/407/270
f 68/405/271 243/408/271 245/409/271
f 68/405/272 245/409/272 374/410/272
f 69/411/273 206/412/273 248/413/273
f 69/411/274 248/413/274 393/414/274
f 69/411/275 242/415/275 247/416/275
f 69/411/276 247/416/276 365/417/276
f 70/418/277 198/419/277 246/420/277
f 70/418/278 246/420/278 241/421/278
f 70/418/279 241/421/279 393/422/279
f 70/418/280 248/423/280 198/419/280
f 71/424/281 249/425/281 252/426/281
f 71/424/282 252/426/282 400/207/282
f 71/424/283 251/427/283 399/428/283
f 71/424/284 250/429/284 397/430/284
f 72/431/285 243/408/285 255/432/285
f 72/431/286 255/432/286 251/433/286
f 72/431/287 251/433/287 253/434/287
f 72/431/288 253/434/288 396/435/288
f 73/436/289 242/437/289 256/438/289
f 73/436/290 256/438/290 250/439/290
f 73/436/291 250/439/291 255/440/291
f 73/436/292 255/440/292 395/441/292
f 74/442/293 241/443/293 394/444/293
f 74/442/294 254/445/294 249/446/294
f 74/442/295 249/446/295 256/447/295
f 74/442/296 256/447/296 241/443/296
f 75/448/297 273/449/297 260/450/297
f 75/448/298 260/450/298 274/451/298
f 75/448/299 274/451/299 409/452/299
f 75/448/300 272/453/300 410/454/300
f 76/455/301 259/456/301 261/457/301
f 76/455/302 261/457/302 262/458/302
f 76/455/303 262/458/303 263/459/303
f 76/455/304 263/459/304 259/456/304
f 77/460/305 289/461/305 266/462/305
f 77/460/306 266/462/306 290/463/306
f 77/460/307 290/463/307 417/464/307
f 77/460/308 288/465/308 418/466/308
f 78/467/309 265/468/309 267/469/309
f 78/467/310 267/469/310 257/470/310
f 78/467/311 257/470/311 268/471/311
f 78/467/312 268/471/312 265/468/312
f 79/472/298 268/473/298 260/450/298
f 79/472/297 260/450/297 263/474/297
f 79/472/313 263/474/313 403/475/313
f 79/472/314 266/476/314 404/477/314
f 80/478/315 267/479/315 408/480/315
f 80/478/316 264/481/316 407/482/316
f 80/478/317 261/483/317 258/484/317
f 80/478/318 258/484/318 267/479/318
f 81/485/319 281/486/319 272/453/319
f 81/485/320 272/453/320 282/487/320
f 81/485/321 282/487/321 413/488/321
f 81/485/322 280/489/322 414/490/322
f 82/491/323 275/492/323 259/456/323
f 82/491/304 259/456/304 273/493/304
f 82/491/324 273/493/324 271/494/324
f 82/491/325 271/494/325 275/492/325
f 83/495/318 276/496/318 258/484/318
f 83/495/317 258/484/317 406/497/317
f 83/495/326 275/498/326 412/499/326
f 83/495/327 270/500/327 411/501/327
f 84/502/311 274/503/311 257/470/311
f 84/502/310 257/470/310 276/504/310
f 84/502/328 276/504/328 269/505/328
f 84/502/329 269/505/329 274/503/329
f 85/506/330 277/507/330 278/508/330
f 85/506/331 278/508/331 279/509/331
f 85/506/332 279/509/332 280/510/332
f 85/506/333 280/510/333 277/507/333
f 86/511/334 283/512/334 412/513/334
f 86/511/335 271/494/335 410/514/335
f 86/511/336 281/515/336 279/516/336
f 86/511/337 279/516/337 283/512/337
f 87/517/338 284/518/338 270/500/338
f 87/517/339 270/500/339 283/519/339
f 87/517/340 283/519/340 416/520/340
f 87/517/341 278/521/341 415/522/341
f 88/523/342 282/524/342 409/525/342
f 88/523/343 269/505/343 411/526/343
f 88/523/344 284/527/344 277/528/344
f 88/523/345 277/528/345 282/524/345
f 89/529/346 297/530/346 288/531/346
f 89/529/347 288/531/347 298/532/347
f 89/529/348 298/532/348 421/533/348
f 89/529/349 296/534/349 422/535/349
f 90/536/350 291/537/350 408/538/350
f 90/536/351 265/468/351 404/539/351
f 90/536/352 289/540/352 287/541/352
f 90/536/353 287/541/353 291/537/353
f 91/542/354 292/543/354 264/544/354
f 91/542/355 264/544/355 291/545/355
f 91/542/356 291/545/356 420/546/356
f 91/542/357 286/547/357 419/548/357
f 92/549/358 290/550/358 403/551/358
f 92/549/359 262/458/359 407/552/359
f 92/549/360 292/553/360 285/554/360
f 92/549/361 285/554/361 290/550/361
f 93/555/362 305/556/362 422/535/362
f 93/555/363 296/534/363 421/533/363
f 93/555/364 306/557/364 304/558/364
f 93/555/365 304/558/365 305/556/365
f 94/559/366 299/560/366 420/561/366
f 94/559/367 287/541/367 418/562/367
f 94/559/368 297/563/368 295/564/368
f 94/559/369 295/564/369 299/560/369
f 95/565/370 300/566/370 286/567/370
f 95/565/371 286/567/371 299/568/371
f 95/565/372 299/568/372 424/569/372
f 95/565/373 294/570/373 423/571/373
f 96/572/374 298/573/374 417/574/374
f 96/572/375 285/554/375 419/575/375
f 96/572/376 300/576/376 293/577/376
f 96/572/377 293/577/377 298/573/377
f 97/578/378 313/579/378 304/558/378
f 97/578/379 304/558/379 314/580/379
f 97/578/380 314/580/380 429/581/380
f 97/578/381 312/582/381 430/583/381
f 98/584/382 307/585/382 295/564/382
f 98/584/383 295/564/383 305/586/383
f 98/584/384 305/586/384 426/587/384
f 98/584/385 303/588/385 428/589/385
f 99/590/386 308/591/386 423/571/386
f 99/590/387 294/570/387 424/569/387
f 99/590/388 307/592/388 302/593/388
f 99/590/389 302/593/389 308/591/389
f 100/594/390 306/595/390 293/577/390
f 100/594/391 293/577/391 308/596/391
f 100/594/392 308/596/392 427/597/392
f 100/594/393 301/598/393 425/599/393
f 101/600/394 321/601/394 312/582/394
f 101/600/395 312/582/395 322/602/395
f 101/600/396 322/602/396 320/603/396
f 101/600/397 320/603/397 321/601/397
f 102/604/398 315/605/398 428/589/398
f 102/604/399 303/588/399 426/587/399
f 102/604/400 313/606/400 311/607/400
f 102/604/401 311/607/401 315/605/401
f 103/608/402 316/609/402 302/593/402
f 103/608/403 302/593/403 315/610/403
f 103/608/404 315/610/404 432/611/404
f 103/608/405 310/612/405 431/613/405
f 104/614/406 314/615/406 425/599/406
f 104/614/407 301/598/407 427/597/407
f 104/614/408 316/616/408 309/617/408
f 104/614/409 309/617/409 314/615/409
f 105/618/410 317/619/410 435/620/410
f 105/618/411 318/621/411 436/622/411
f 105/618/412 319/623/412 434/624/412
f 105/618/413 320/625/413 433/626/413
f 106/627/414 323/628/414 432/629/414
f 106/627/415 311/607/415 430/630/415
f 106/627/416 321/631/416 319/632/416
f 106/627/417 319/632/417 323/628/417
f 107/633/418 324/634/418 310/612/418
f 107/633/419 310/612/419 323/635/419
f 107/633/420 323/635/420 318/636/420
f 107/633/421 318/636/421 324/634/421
f 108/637/422 322/638/422 429/639/422
f 108/637/423 309/617/423 431/640/423
f 108/637/424 324/641/424 317/642/424
f 108/637/425 317/642/425 322/638/425
f 109/4/426 1/1/426 325/3/426
f 112/6/427 1/1/427 381/5/427
f 112/6/428 382/242/428 114/7/428
f 110/2/429 1/1/429 326/8/429
f 109/10/430 325/39/430 111/11/430
f 117/13/431 2/9/431 327/12/431
f 117/13/432 383/247/432 113/14/432
f 113/14/433 381/246/433 109/10/433
f 115/18/434 3/15/434 382/17/434
f 119/20/435 3/15/435 384/19/435
f 116/22/436 3/15/436 328/21/436
f 116/22/437 326/33/437 114/16/437
f 118/26/438 4/23/438 328/25/438
f 125/28/439 4/23/439 327/27/439
f 123/30/440 4/23/440 331/29/440
f 123/30/441 332/104/441 124/24/441
f 116/22/442 5/31/442 326/33/442
f 116/22/443 328/21/443 124/34/443
f 122/36/444 5/31/444 332/35/444
f 122/36/445 330/110/445 126/32/445
f 125/38/446 327/12/446 111/11/446
f 127/40/447 6/37/447 325/39/447
f 127/40/448 329/643/448 121/41/448
f 125/38/449 6/37/449 331/42/449
f 127/44/450 325/644/450 110/45/450
f 110/45/451 326/645/451 126/46/451
f 120/48/452 7/43/452 330/47/452
f 127/44/453 7/43/453 329/49/453
f 132/53/454 8/50/454 336/52/454
f 132/53/455 386/286/455 137/54/455
f 137/54/456 388/59/456 135/55/456
f 136/51/457 8/50/457 338/56/457
f 142/58/458 338/56/458 135/55/458
f 143/60/459 9/57/459 388/59/459
f 141/62/460 9/57/460 389/61/460
f 142/58/461 9/57/461 340/63/461
f 131/67/462 10/64/462 335/66/462
f 131/67/463 336/646/463 136/68/463
f 136/68/464 338/647/464 134/69/464
f 139/65/465 10/64/465 337/70/465
f 130/74/466 11/71/466 385/73/466
f 130/74/467 335/66/467 139/65/467
f 133/75/468 11/71/468 337/70/468
f 138/72/469 11/71/469 387/76/469
f 144/78/470 337/648/470 134/79/470
f 142/81/471 12/77/471 338/80/471
f 142/81/472 340/177/472 140/82/472
f 144/78/473 12/77/473 339/83/473
f 148/85/474 345/228/474 146/86/474
f 146/86/475 343/649/475 145/87/475
f 145/87/476 344/650/476 147/88/476
f 147/88/477 346/651/477 148/85/477
f 151/90/478 347/652/478 152/91/478
f 152/91/479 348/653/479 154/92/479
f 153/94/480 14/89/480 392/93/480
f 151/90/481 14/89/481 391/95/481
f 119/98/482 15/96/482 328/25/482
f 119/98/483 384/324/483 163/99/483
f 132/101/484 15/96/484 386/100/484
f 132/101/485 336/131/485 162/97/485
f 123/30/486 16/102/486 332/104/486
f 123/30/487 331/29/487 160/105/487
f 159/107/488 16/102/488 342/106/488
f 159/107/489 334/149/489 128/103/489
f 122/36/490 17/108/490 330/110/490
f 122/36/491 332/35/491 128/111/491
f 158/113/492 17/108/492 334/112/492
f 161/109/493 17/108/493 341/114/493
f 177/116/494 342/654/494 160/117/494
f 160/117/495 331/655/495 178/118/495
f 176/120/496 18/115/496 350/119/496
f 177/116/497 18/115/497 352/121/497
f 129/123/498 329/656/498 120/124/498
f 161/126/499 19/122/499 330/125/499
f 161/126/500 341/166/500 156/127/500
f 129/123/501 19/122/501 333/128/501
f 118/26/502 20/129/502 327/27/502
f 118/26/503 328/25/503 162/97/503
f 131/132/504 20/129/504 336/131/504
f 165/130/505 20/129/505 335/133/505
f 117/137/506 21/134/506 383/136/506
f 117/137/507 327/27/507 165/130/507
f 130/138/508 21/134/508 335/133/508
f 130/138/509 385/355/509 164/135/509
f 133/142/510 22/139/510 387/141/510
f 144/144/511 22/139/511 337/143/511
f 144/144/512 339/657/512 166/145/512
f 167/140/513 22/139/513 390/146/513
f 159/107/514 23/147/514 334/149/514
f 149/150/515 23/147/515 342/106/515
f 149/150/516 345/658/516 148/151/516
f 148/151/517 346/659/517 168/148/517
f 150/153/518 341/114/518 158/113/518
f 168/154/519 24/152/519 334/112/519
f 168/154/520 346/660/520 147/155/520
f 150/153/521 24/152/521 344/156/521
f 149/158/522 342/661/522 157/159/522
f 169/161/523 25/157/523 333/160/523
f 146/163/524 25/157/524 343/162/524
f 146/163/525 345/662/525 149/158/525
f 156/127/526 26/164/526 333/128/526
f 150/167/527 26/164/527 341/166/527
f 150/167/528 344/663/528 145/168/528
f 145/168/529 343/664/529 169/165/529
f 141/62/530 27/169/530 340/63/530
f 141/62/531 389/61/531 171/171/531
f 154/173/532 27/169/532 392/172/532
f 170/170/533 27/169/533 348/174/533
f 172/176/534 339/83/534 140/82/534
f 170/178/535 28/175/535 340/177/535
f 170/178/536 348/665/536 152/179/536
f 152/179/537 347/666/537 172/176/537
f 166/145/538 29/180/538 390/146/538
f 166/145/539 339/657/539 172/182/539
f 151/184/540 29/180/540 347/183/540
f 151/184/541 391/667/541 155/181/541
f 176/188/542 30/185/542 352/187/542
f 176/188/543 350/668/543 186/189/543
f 186/189/544 354/669/544 184/190/544
f 184/190/545 356/670/545 185/186/545
f 179/192/546 333/671/546 157/193/546
f 177/195/547 31/191/547 342/194/547
f 177/195/548 352/222/548 175/196/548
f 179/192/549 31/191/549 351/197/549
f 129/201/550 32/198/550 329/200/550
f 179/203/551 32/198/551 333/202/551
f 179/203/552 351/672/552 174/204/552
f 174/204/553 349/645/553 180/199/553
f 121/208/554 33/205/554 331/207/554
f 121/208/555 329/673/555 180/209/555
f 173/211/556 33/205/556 349/210/556
f 173/211/557 350/674/557 178/206/557
f 184/213/558 354/675/558 181/214/558
f 182/216/559 34/212/559 353/215/559
f 183/218/560 34/212/560 355/217/560
f 184/213/561 34/212/561 356/219/561
f 187/221/562 351/197/562 175/196/562
f 185/223/563 35/220/563 352/222/563
f 185/223/564 356/676/564 183/224/564
f 183/224/565 355/677/565 187/221/565
f 188/226/566 349/678/566 174/227/566
f 187/229/567 36/225/567 351/228/567
f 187/229/568 355/679/568 182/230/568
f 182/230/569 353/680/569 188/226/569
f 173/234/570 37/231/570 350/233/570
f 173/234/571 349/681/571 188/235/571
f 188/235/572 353/682/572 181/236/572
f 181/236/573 354/683/573 186/232/573
f 190/240/574 38/237/574 357/239/574
f 190/240/575 358/684/575 192/241/575
f 112/6/576 38/237/576 382/242/576
f 112/6/577 381/5/577 189/238/577
f 191/244/578 357/273/578 189/245/578
f 113/14/579 39/243/579 381/246/579
f 194/248/580 39/243/580 383/247/580
f 191/244/581 39/243/581 359/249/581
f 115/18/582 382/17/582 192/251/582
f 192/251/583 358/264/583 193/252/583
f 196/254/584 40/250/584 360/253/584
f 196/254/585 384/19/585 115/18/585
f 201/258/586 41/255/586 360/257/586
f 201/258/587 364/326/587 200/259/587
f 202/261/588 41/255/588 363/260/588
f 195/256/589 41/255/589 359/262/589
f 203/265/590 42/263/590 358/264/590
f 203/265/591 362/331/591 199/266/591
f 201/268/592 42/263/592 364/267/592
f 201/268/593 360/253/593 193/252/593
f 191/244/594 359/249/594 202/270/594
f 202/270/595 363/685/595 198/271/595
f 198/271/596 361/686/596 204/272/596
f 191/244/597 43/269/597 357/273/597
f 190/275/598 357/656/598 204/276/598
f 197/278/599 44/274/599 361/277/599
f 203/280/600 44/274/600 362/279/600
f 203/280/601 358/687/601 190/275/601
f 209/282/602 368/688/602 213/283/602
f 212/285/603 45/281/603 370/284/603
f 212/285/604 388/59/604 137/54/604
f 209/282/605 45/281/605 386/286/605
f 212/285/606 370/284/606 217/288/606
f 216/290/607 46/287/607 372/289/607
f 143/60/608 46/287/608 389/61/608
f 212/285/609 46/287/609 388/59/609
f 208/292/610 367/689/610 214/293/610
f 211/295/611 47/291/611 369/294/611
f 211/295/612 370/309/612 213/296/612
f 208/292/613 47/291/613 368/297/613
f 207/299/614 385/73/614 138/72/614
f 210/300/615 48/298/615 387/76/615
f 214/302/616 48/298/616 369/301/616
f 207/299/617 48/298/617 367/303/617
f 211/295/618 369/294/618 218/305/618
f 215/307/619 49/304/619 371/306/619
f 215/307/620 372/394/620 217/308/620
f 211/295/621 49/304/621 370/309/621
f 220/311/622 377/690/622 222/312/622
f 222/312/623 378/691/623 221/313/623
f 221/313/624 376/692/624 219/314/624
f 219/314/625 375/377/625 220/311/625
f 226/316/626 379/693/626 225/317/626
f 153/94/627 51/315/627 391/95/627
f 227/318/628 51/315/628 392/93/628
f 227/318/629 380/694/629 226/316/629
f 196/320/630 360/257/630 234/321/630
f 209/323/631 52/319/631 368/322/631
f 209/323/632 386/100/632 163/99/632
f 196/320/633 52/319/633 384/324/633
f 205/327/634 53/325/634 364/326/634
f 205/327/635 366/695/635 231/328/635
f 231/328/636 374/367/636 232/329/636
f 200/259/637 53/325/637 363/260/637
f 233/332/638 54/330/638 362/331/638
f 230/334/639 54/330/639 373/333/639
f 230/334/640 366/373/640 205/335/640
f 205/335/641 364/267/641 199/266/641
f 245/339/642 55/336/642 374/338/642
f 245/339/643 396/696/643 244/340/643
f 246/342/644 55/336/644 394/341/644
f 246/342/645 363/697/645 232/337/645
f 206/346/646 56/343/646 361/345/646
f 206/346/647 365/381/647 228/347/647
f 228/347/648 373/385/648 233/348/648
f 233/348/649 362/698/649 197/344/649
f 195/256/650 359/262/650 235/350/650
f 208/352/651 57/349/651 367/351/651
f 208/352/652 368/322/652 234/321/652
f 195/256/653 57/349/653 360/257/653
f 194/354/654 383/136/654 164/135/654
f 207/356/655 58/353/655 385/355/655
f 207/356/656 367/351/656 235/350/656
f 194/354/657 58/353/657 359/262/657
f 167/140/658 59/357/658 387/141/658
f 236/359/659 59/357/659 390/146/659
f 236/359/660 371/699/660 218/360/660
f 210/358/661 59/357/661 369/361/661
f 231/328/662 366/695/662 237/363/662
f 222/365/663 60/362/663 378/364/663
f 222/365/664 377/700/664 223/366/664
f 231/328/665 60/362/665 374/367/665
f 230/334/666 373/333/666 224/369/666
f 221/371/667 61/368/667 376/370/667
f 221/371/668 378/701/668 237/372/668
f 230/334/669 61/368/669 366/373/669
f 229/375/670 374/410/670 223/376/670
f 223/376/671 377/690/671 220/311/671
f 238/378/672 62/374/672 375/377/672
f 229/375/673 62/374/673 365/379/673
f 238/382/674 63/380/674 365/381/674
f 238/382/675 375/702/675 219/383/675
f 219/383/676 376/703/676 224/384/676
f 228/347/677 63/380/677 373/385/677
f 239/387/678 64/386/678 372/289/678
f 227/389/679 64/386/679 380/388/679
f 171/171/680 64/386/680 392/172/680
f 171/171/681 389/61/681 216/290/681
f 215/307/682 371/306/682 240/391/682
f 240/391/683 379/704/683 226/392/683
f 226/392/684 380/705/684 239/393/684
f 215/307/685 65/390/685 372/394/685
f 155/181/686 66/395/686 390/146/686
f 155/181/687 391/667/687 225/396/687
f 240/398/688 66/395/688 379/397/688
f 240/398/689 371/699/689 236/359/689
f 253/402/690 67/399/690 396/401/690
f 253/402/691 400/706/691 252/403/691
f 252/403/692 398/707/692 254/404/692
f 254/404/693 394/708/693 244/400/693
f 229/375/694 365/379/694 247/406/694
f 243/408/695 68/405/695 395/407/695
f 243/408/696 396/435/696 245/409/696
f 229/375/697 68/405/697 374/410/697
f 206/412/698 361/709/698 248/413/698
f 242/415/699 69/411/699 393/414/699
f 242/415/700 395/710/700 247/416/700
f 206/412/701 69/411/701 365/417/701
f 198/419/702 363/711/702 246/420/702
f 246/420/703 394/712/703 241/421/703
f 248/423/704 70/418/704 393/422/704
f 248/423/705 361/713/705 198/419/705
f 249/425/706 398/714/706 252/426/706
f 251/427/707 71/424/707 400/207/707
f 250/429/708 71/424/708 399/428/708
f 249/425/709 71/424/709 397/430/709
f 243/408/710 395/407/710 255/432/710
f 255/432/711 399/715/711 251/433/711
f 251/433/712 400/716/712 253/434/712
f 243/408/713 72/431/713 396/435/713
f 242/437/714 393/717/714 256/438/714
f 256/438/715 397/718/715 250/439/715
f 250/439/716 399/417/716 255/440/716
f 242/437/717 73/436/717 395/441/717
f 254/445/718 74/442/718 394/444/718
f 254/445/719 398/719/719 249/446/719
f 249/446/720 397/720/720 256/447/720
f 256/447/721 393/698/721 241/443/721
f 273/449/297 402/721/297 260/450/297
f 260/450/298 401/722/298 274/451/298
f 272/453/722 75/448/722 409/452/722
f 273/449/723 75/448/723 410/454/723
f 259/456/323 406/723/323 261/457/323
f 261/457/302 407/552/302 262/458/302
f 262/458/724 403/551/724 263/459/724
f 263/459/304 402/724/304 259/456/304
f 289/461/725 404/725/725 266/462/725
f 266/462/726 403/726/726 290/463/726
f 288/465/727 77/460/727 417/464/727
f 289/461/728 77/460/728 418/466/728
f 265/468/729 408/538/729 267/469/729
f 267/469/310 405/727/310 257/470/310
f 257/470/730 401/728/730 268/471/730
f 268/471/731 404/539/731 265/468/731
f 268/473/298 401/722/298 260/450/298
f 260/450/297 402/721/297 263/474/297
f 266/476/313 79/472/313 403/475/313
f 268/473/732 79/472/732 404/477/732
f 264/481/733 80/478/733 408/480/733
f 261/483/734 80/478/734 407/482/734
f 261/483/317 406/497/317 258/484/317
f 258/484/318 405/729/318 267/479/318
f 281/486/319 410/454/319 272/453/319
f 272/453/735 409/452/735 282/487/735
f 280/489/736 81/485/736 413/488/736
f 281/486/737 81/485/737 414/490/737
f 275/492/738 406/723/738 259/456/738
f 259/456/304 402/724/304 273/493/304
f 273/493/324 410/514/324 271/494/324
f 271/494/325 412/513/325 275/492/325
f 276/496/318 405/729/318 258/484/318
f 275/498/317 83/495/317 406/497/317
f 270/500/739 83/495/739 412/499/739
f 276/496/740 83/495/740 411/501/740
f 274/503/741 401/728/741 257/470/741
f 257/470/310 405/727/310 276/504/310
f 276/504/742 411/526/742 269/505/742
f 269/505/743 409/525/743 274/503/743
f 277/507/744 415/730/744 278/508/744
f 278/508/745 416/731/745 279/509/745
f 279/509/746 414/732/746 280/510/746
f 280/510/747 413/733/747 277/507/747
f 271/494/748 86/511/748 412/513/748
f 281/515/749 86/511/749 410/514/749
f 281/515/750 414/734/750 279/516/750
f 279/516/751 416/735/751 283/512/751
f 284/518/752 411/501/752 270/500/752
f 270/500/753 412/499/753 283/519/753
f 278/521/754 87/517/754 416/520/754
f 284/518/755 87/517/755 415/522/755
f 269/505/342 88/523/342 409/525/342
f 284/527/343 88/523/343 411/526/343
f 284/527/756 415/736/756 277/528/756
f 277/528/757 413/737/757 282/524/757
f 297/530/758 418/187/758 288/531/758
f 288/531/759 417/738/759 298/532/759
f 296/534/760 89/529/760 421/533/760
f 297/530/761 89/529/761 422/535/761
f 265/468/762 90/536/762 408/538/762
f 289/540/351 90/536/351 404/539/351
f 289/540/763 418/562/763 287/541/763
f 287/541/353 420/561/353 291/537/353
f 292/543/764 407/739/764 264/544/764
f 264/544/765 408/661/765 291/545/765
f 286/547/766 91/542/766 420/546/766
f 292/543/767 91/542/767 419/548/767
f 262/458/768 92/549/768 403/551/768
f 292/553/359 92/549/359 407/552/359
f 292/553/769 419/575/769 285/554/769
f 285/554/770 417/574/770 290/550/770
f 296/534/771 93/555/771 422/535/771
f 306/557/772 93/555/772 421/533/772
f 306/557/773 425/740/773 304/558/773
f 304/558/774 426/741/774 305/556/774
f 287/541/775 94/559/775 420/561/775
f 297/563/367 94/559/367 418/562/367
f 297/563/776 422/742/776 295/564/776
f 295/564/777 424/743/777 299/560/777
f 300/566/778 419/744/778 286/567/778
f 286/567/779 420/745/779 299/568/779
f 294/570/780 95/565/780 424/569/780
f 300/566/781 95/565/781 423/571/781
f 285/554/782 96/572/782 417/574/782
f 300/576/783 96/572/783 419/575/783
f 300/576/376 423/746/376 293/577/376
f 293/577/784 421/747/784 298/573/784
f 313/579/785 426/741/785 304/558/785
f 304/558/786 425/740/786 314/580/786
f 312/582/380 97/578/380 429/581/380
f 313/579/787 97/578/787 430/583/787
f 307/585/382 424/743/382 295/564/382
f 295/564/788 422/742/788 305/586/788
f 303/588/789 98/584/789 426/587/789
f 307/585/790 98/584/790 428/589/790
f 294/570/791 99/590/791 423/571/791
f 307/592/792 99/590/792 424/569/792
f 307/592/793 428/748/793 302/593/793
f 302/593/794 427/749/794 308/591/794
f 306/595/795 421/747/795 293/577/795
f 293/577/796 423/746/796 308/596/796
f 301/598/797 100/594/797 427/597/797
f 306/595/798 100/594/798 425/599/798
f 321/601/799 430/583/799 312/582/799
f 312/582/800 429/581/800 322/602/800
f 322/602/801 433/750/801 320/603/801
f 320/603/802 434/751/802 321/601/802
f 303/588/398 102/604/398 428/589/398
f 313/606/803 102/604/803 426/587/803
f 313/606/804 430/630/804 311/607/804
f 311/607/805 432/629/805 315/605/805
f 316/609/806 427/749/806 302/593/806
f 302/593/807 428/748/807 315/610/807
f 310/612/808 103/608/808 432/611/808
f 316/609/405 103/608/405 431/613/405
f 301/598/406 104/614/406 425/599/406
f 316/616/809 104/614/809 427/597/809
f 316/616/810 431/640/810 309/617/810
f 309/617/811 429/639/811 314/615/811
f 318/621/812 105/618/812 435/620/812
f 319/623/813 105/618/813 436/622/813
f 320/625/814 105/618/814 434/624/814
f 317/619/815 105/618/815 433/626/815
f 311/607/816 106/627/816 432/629/816
f 321/631/817 106/627/817 430/630/817
f 321/631/818 434/752/818 319/632/818
f 319/632/819 436/753/819 323/628/819
f 324/634/820 431/613/820 310/612/820
f 310/612/821 432/611/821 323/635/821
f 323/635/822 436/754/822 318/636/822
f 318/636/823 435/755/823 324/634/823
f 309/617/824 108/637/824 429/639/824
f 324/641/825 108/637/825 431/640/825
f 324/641/826 435/756/826 317/642/826
f 317/642/827 433/757/827 322/638/827
