# Blender v2.69 (sub 0) OBJ File: ''
# www.blender.org
v 78.683372 145.790131 -714.421814
v 0.000000 150.000000 0.000000
v 231.048706 -83.396042 -818.221924
v 86.602539 -0.000006 -0.000000
v -231.048706 -83.396004 -818.221924
v -86.602547 0.000009 0.000000
v 231.048706 -83.396042 -818.221924
v -231.048706 -83.396004 -818.221924
v 2.153826 601.765930 -1222.363525
vn 0.847730 0.522688 0.090285
vn -0.861562 0.497423 0.101398
vn -0.000000 -0.994846 0.101398
vn 0.000000 -0.000000 1.000000
vn -0.000000 -0.508052 -0.861326
vn -0.600576 0.547901 0.582334
vn 0.853670 0.444898 0.270763
vn 0.861562 0.497423 0.101398
vn -0.578484 0.812813 -0.068501
s off
f 1//1 2//1 3//1
f 5//2 6//2 2//2
f 3//3 4//3 5//3
f 4//4 2//4 6//4
f 3//4 5//4 7//4
f 7//5 8//5 9//5
f 5//4 1//4 8//4
f 1//4 3//4 7//4
f 8//6 1//6 9//6
f 1//7 7//7 9//7
f 2//8 4//8 3//8
f 1//9 5//9 2//9
f 4//3 6//3 5//3
f 5//4 8//4 7//4
v 59.944786 121.420906 -331.641113
v 103.744545 37.517090 -232.725967
v 98.871002 478.233887 -145.574402
v 40.720730 134.916534 -160.036011
vn 0.646594 -0.141097 0.749672
vn 0.934582 0.078931 -0.346882
vn -0.977611 0.170764 -0.122946
vn -0.856696 -0.512812 -0.055642
s off
f 11//10 12//10 13//10
f 10//11 12//11 11//11
f 13//12 12//12 10//12
f 10//13 11//13 13//13
v 82.650391 105.481201 -534.324219
v 126.450157 21.577377 -435.409088
v 123.417297 621.269348 -381.370575
v 63.426357 118.976830 -362.719147
vn 0.713535 -0.059298 0.698106
vn 0.925411 0.038651 -0.376988
vn -0.986351 0.113370 -0.119412
vn -0.856696 -0.512812 -0.055642
s off
f 15//14 16//14 17//14
f 14//15 16//15 15//15
f 17//16 16//16 14//16
f 14//17 15//17 17//17
v 106.682220 88.610443 -748.846191
v 150.481979 4.706619 -649.931091
v 145.481140 677.430298 -568.806396
v 87.458176 102.106071 -577.241089
vn 0.697006 -0.080741 0.712505
vn 0.928535 0.051243 -0.367691
vn -0.987753 0.101357 -0.118624
vn -0.856696 -0.512812 -0.055642
s off
f 19//18 20//18 21//18
f 18//19 20//19 19//19
f 21//20 20//20 18//20
f 18//21 19//21 21//21
v 96.446854 292.917725 -996.489258
v 142.753265 187.385727 -922.589478
v 118.033379 618.828613 -699.335205
v 76.825989 260.525085 -827.475281
vn 0.643792 -0.322249 0.694037
vn 0.934013 0.204931 -0.292613
vn -0.985710 0.144391 -0.086758
vn -0.840869 -0.505113 -0.194425
s off
f 23//22 24//22 25//22
f 22//23 24//23 23//23
f 25//24 24//24 22//24
f 22//25 23//25 25//25
